assigned to cpu 3
assigned priority -19
memsize=1024 KB, type=read, cpuid=3
stop at 1000
total sum = 836632576
g_nread(bytes read) = 10486808576
elapsed = 0.52 sec ( 520739 usec )
CPU3: B/W = 19205.40 MB/s | CPU3: average = 3.18 ns
total llcache-events (accesses) : 292603132
total llcache-events (misses)   : 35216
llcache-miss-rate               : 0.01%
LLC B/W  = 34295.64 MB/s
DRAM B/W = 4.13 MB/s
pid : 4846
             flags	page-count       MB  symbolic-flags			long-symbolic-flags
0x000000000000086c	       124        0  __RU_lA____M______________________	referenced,uptodate,lru,active,mmap
0x0000000000005808	         8        0  ___U_______Ma_b___________________	uptodate,mmap,anonymous,swapbacked
0x0000000000005868	       284        1  ___U_lA____Ma_b___________________	uptodate,lru,active,mmap,anonymous,swapbacked
0x000000000000586c	         1        0  __RU_lA____Ma_b___________________	referenced,uptodate,lru,active,mmap,anonymous,swapbacked
             total	       417        1

=============================================
Color Distribution for All Pages:
=============================================
             color[0]	        19        0
             color[1]	        16        0
             color[2]	        14        0
             color[3]	        15        0
             color[4]	        18        0
             color[5]	        20        0
             color[6]	        16        0
             color[7]	        13        0
             color[8]	        15        0
             color[9]	        16        0
             color[10]	        16        0
             color[11]	        17        0
             color[12]	        12        0
             color[13]	        11        0
             color[14]	        11        0
             color[15]	        12        0
             color[16]	        12        0
             color[17]	        10        0
             color[18]	        11        0
             color[19]	         9        0
             color[20]	        11        0
             color[21]	         8        0
             color[22]	         9        0
             color[23]	        12        0
             color[24]	        10        0
             color[25]	        13        0
             color[26]	        16        0
             color[27]	        13        0
             color[28]	         5        0
             color[29]	        10        0
             color[30]	        14        0
             color[31]	        13        0
