assigned to cpu 3
assigned priority -19
memsize=1536 KB, type=read, cpuid=3
stop at 1000
total sum = -1429405696
g_nread(bytes read) = 15730212864
elapsed = 0.87 sec ( 869321 usec )
CPU3: B/W = 17256.57 MB/s | CPU3: average = 3.54 ns
total llcache-events (accesses) : 434695819
total llcache-events (misses)   : 3835030
llcache-miss-rate               : 0.88%
LLC B/W  = 30520.06 MB/s
DRAM B/W = 269.26 MB/s
pid : 5484
             flags	page-count       MB  symbolic-flags			long-symbolic-flags
0x000000000000086c	       124        0  __RU_lA____M______________________	referenced,uptodate,lru,active,mmap
0x0000000000005808	         8        0  ___U_______Ma_b___________________	uptodate,mmap,anonymous,swapbacked
0x0000000000005868	       412        1  ___U_lA____Ma_b___________________	uptodate,lru,active,mmap,anonymous,swapbacked
0x000000000000586c	         1        0  __RU_lA____Ma_b___________________	referenced,uptodate,lru,active,mmap,anonymous,swapbacked
             total	       545        2

=============================================
Color Distribution for All Pages:
=============================================
             color[0]	        18        0
             color[1]	        20        0
             color[2]	        15        0
             color[3]	        18        0
             color[4]	        21        0
             color[5]	        21        0
             color[6]	        19        0
             color[7]	        18        0
             color[8]	        17        0
             color[9]	        20        0
             color[10]	        18        0
             color[11]	        18        0
             color[12]	        19        0
             color[13]	        20        0
             color[14]	        18        0
             color[15]	        14        0
             color[16]	        18        0
             color[17]	        15        0
             color[18]	        15        0
             color[19]	        15        0
             color[20]	         9        0
             color[21]	        11        0
             color[22]	        16        0
             color[23]	        15        0
             color[24]	        19        0
             color[25]	        18        0
             color[26]	        18        0
             color[27]	        22        0
             color[28]	        12        0
             color[29]	        14        0
             color[30]	        16        0
             color[31]	        18        0
