assigned to cpu 3
assigned priority -19
memsize=1536 KB, type=read, cpuid=3
stop at 1000
total sum = -1429405696
g_nread(bytes read) = 15730212864
elapsed = 1.07 sec ( 1065349 usec )
CPU3: B/W = 14081.30 MB/s | CPU3: average = 4.33 ns
total llcache-events (accesses) : 440966147
total llcache-events (misses)   : 13080553
llcache-miss-rate               : 2.97%
LLC B/W  = 25263.49 MB/s
DRAM B/W = 749.40 MB/s
pid : 5905
             flags	page-count       MB  symbolic-flags			long-symbolic-flags
0x000000000000086c	       124        0  __RU_lA____M______________________	referenced,uptodate,lru,active,mmap
0x0000000000005808	         8        0  ___U_______Ma_b___________________	uptodate,mmap,anonymous,swapbacked
0x0000000000005868	       412        1  ___U_lA____Ma_b___________________	uptodate,lru,active,mmap,anonymous,swapbacked
0x000000000000586c	         1        0  __RU_lA____Ma_b___________________	referenced,uptodate,lru,active,mmap,anonymous,swapbacked
             total	       545        2

=============================================
Color Distribution for All Pages:
=============================================
             color[0]	        16        0
             color[1]	        15        0
             color[2]	        19        0
             color[3]	        23        0
             color[4]	        24        0
             color[5]	        23        0
             color[6]	        14        0
             color[7]	        20        0
             color[8]	        15        0
             color[9]	        19        0
             color[10]	        21        0
             color[11]	        19        0
             color[12]	        16        0
             color[13]	        16        0
             color[14]	        22        0
             color[15]	        20        0
             color[16]	        15        0
             color[17]	        11        0
             color[18]	        11        0
             color[19]	         9        0
             color[20]	        16        0
             color[21]	        13        0
             color[22]	        10        0
             color[23]	        15        0
             color[24]	        15        0
             color[25]	        14        0
             color[26]	        23        0
             color[27]	        22        0
             color[28]	        13        0
             color[29]	        12        0
             color[30]	        21        0
             color[31]	        23        0
