assigned to cpu 3
assigned priority -19
memsize=1536 KB, type=read, cpuid=3
stop at 1000
total sum = -1429405696
g_nread(bytes read) = 15730212864
elapsed = 0.98 sec ( 977695 usec )
CPU3: B/W = 15343.74 MB/s | CPU3: average = 3.98 ns
total llcache-events (accesses) : 438057471
total llcache-events (misses)   : 10008131
llcache-miss-rate               : 2.28%
LLC B/W  = 27346.88 MB/s
DRAM B/W = 624.78 MB/s
pid : 5399
             flags	page-count       MB  symbolic-flags			long-symbolic-flags
0x000000000000086c	       124        0  __RU_lA____M______________________	referenced,uptodate,lru,active,mmap
0x0000000000005808	         8        0  ___U_______Ma_b___________________	uptodate,mmap,anonymous,swapbacked
0x0000000000005868	       412        1  ___U_lA____Ma_b___________________	uptodate,lru,active,mmap,anonymous,swapbacked
0x000000000000586c	         1        0  __RU_lA____Ma_b___________________	referenced,uptodate,lru,active,mmap,anonymous,swapbacked
             total	       545        2

=============================================
Color Distribution for All Pages:
=============================================
             color[0]	        22        0
             color[1]	        22        0
             color[2]	        21        0
             color[3]	        21        0
             color[4]	        17        0
             color[5]	        18        0
             color[6]	        17        0
             color[7]	        18        0
             color[8]	        11        0
             color[9]	        15        0
             color[10]	        19        0
             color[11]	        16        0
             color[12]	        25        0
             color[13]	        22        0
             color[14]	        22        0
             color[15]	        22        0
             color[16]	        19        0
             color[17]	        15        0
             color[18]	        14        0
             color[19]	        12        0
             color[20]	        16        0
             color[21]	        13        0
             color[22]	        14        0
             color[23]	        14        0
             color[24]	        18        0
             color[25]	        16        0
             color[26]	        19        0
             color[27]	        20        0
             color[28]	         7        0
             color[29]	         9        0
             color[30]	        17        0
             color[31]	        14        0
