assigned to cpu 3
assigned priority -19
memsize=1536 KB, type=read, cpuid=3
stop at 1000
total sum = -1429405696
g_nread(bytes read) = 15730212864
elapsed = 0.95 sec ( 951716 usec )
CPU3: B/W = 15762.58 MB/s | CPU3: average = 3.87 ns
total llcache-events (accesses) : 440265442
total llcache-events (misses)   : 11695634
llcache-miss-rate               : 2.66%
LLC B/W  = 28234.97 MB/s
DRAM B/W = 750.06 MB/s
pid : 5722
             flags	page-count       MB  symbolic-flags			long-symbolic-flags
0x000000000000086c	       124        0  __RU_lA____M______________________	referenced,uptodate,lru,active,mmap
0x0000000000005808	         8        0  ___U_______Ma_b___________________	uptodate,mmap,anonymous,swapbacked
0x0000000000005868	       412        1  ___U_lA____Ma_b___________________	uptodate,lru,active,mmap,anonymous,swapbacked
0x000000000000586c	         1        0  __RU_lA____Ma_b___________________	referenced,uptodate,lru,active,mmap,anonymous,swapbacked
             total	       545        2

=============================================
Color Distribution for All Pages:
=============================================
             color[0]	        22        0
             color[1]	        21        0
             color[2]	        20        0
             color[3]	        24        0
             color[4]	        13        0
             color[5]	        19        0
             color[6]	        18        0
             color[7]	        15        0
             color[8]	        13        0
             color[9]	        17        0
             color[10]	        21        0
             color[11]	        14        0
             color[12]	        21        0
             color[13]	        21        0
             color[14]	        22        0
             color[15]	        20        0
             color[16]	        14        0
             color[17]	        16        0
             color[18]	        14        0
             color[19]	        12        0
             color[20]	        13        0
             color[21]	        11        0
             color[22]	        12        0
             color[23]	        15        0
             color[24]	        18        0
             color[25]	        16        0
             color[26]	        27        0
             color[27]	        23        0
             color[28]	         9        0
             color[29]	        10        0
             color[30]	        17        0
             color[31]	        17        0
