assigned to cpu 3
assigned priority -19
memsize=1536 KB, type=read, cpuid=3
stop at 1000
total sum = -1429405696
g_nread(bytes read) = 15730212864
elapsed = 1.05 sec ( 1047534 usec )
CPU3: B/W = 14320.78 MB/s | CPU3: average = 4.26 ns
total llcache-events (accesses) : 441943788
total llcache-events (misses)   : 16822107
llcache-miss-rate               : 3.81%
LLC B/W  = 25750.10 MB/s
DRAM B/W = 980.15 MB/s
pid : 6088
             flags	page-count       MB  symbolic-flags			long-symbolic-flags
0x000000000000086c	       124        0  __RU_lA____M______________________	referenced,uptodate,lru,active,mmap
0x0000000000005808	         8        0  ___U_______Ma_b___________________	uptodate,mmap,anonymous,swapbacked
0x0000000000005868	       412        1  ___U_lA____Ma_b___________________	uptodate,lru,active,mmap,anonymous,swapbacked
0x000000000000586c	         1        0  __RU_lA____Ma_b___________________	referenced,uptodate,lru,active,mmap,anonymous,swapbacked
             total	       545        2

=============================================
Color Distribution for All Pages:
=============================================
             color[0]	        22        0
             color[1]	        20        0
             color[2]	        14        0
             color[3]	        18        0
             color[4]	        25        0
             color[5]	        19        0
             color[6]	        24        0
             color[7]	        15        0
             color[8]	        15        0
             color[9]	        20        0
             color[10]	        19        0
             color[11]	        17        0
             color[12]	        14        0
             color[13]	        14        0
             color[14]	        22        0
             color[15]	        20        0
             color[16]	        14        0
             color[17]	        16        0
             color[18]	        14        0
             color[19]	        16        0
             color[20]	        13        0
             color[21]	        14        0
             color[22]	        10        0
             color[23]	        14        0
             color[24]	        18        0
             color[25]	        17        0
             color[26]	        21        0
             color[27]	        23        0
             color[28]	         8        0
             color[29]	        11        0
             color[30]	        16        0
             color[31]	        22        0
