assigned to cpu 3
assigned priority -19
memsize=1536 KB, type=read, cpuid=3
stop at 1000
total sum = -1429405696
g_nread(bytes read) = 15730212864
elapsed = 1.04 sec ( 1036214 usec )
CPU3: B/W = 14477.22 MB/s | CPU3: average = 4.22 ns
total llcache-events (accesses) : 441393867
total llcache-events (misses)   : 16147500
llcache-miss-rate               : 3.66%
LLC B/W  = 25999.02 MB/s
DRAM B/W = 951.12 MB/s
pid : 6061
             flags	page-count       MB  symbolic-flags			long-symbolic-flags
0x000000000000086c	       124        0  __RU_lA____M______________________	referenced,uptodate,lru,active,mmap
0x0000000000005808	         8        0  ___U_______Ma_b___________________	uptodate,mmap,anonymous,swapbacked
0x0000000000005868	       412        1  ___U_lA____Ma_b___________________	uptodate,lru,active,mmap,anonymous,swapbacked
0x000000000000586c	         1        0  __RU_lA____Ma_b___________________	referenced,uptodate,lru,active,mmap,anonymous,swapbacked
             total	       545        2

=============================================
Color Distribution for All Pages:
=============================================
             color[0]	        23        0
             color[1]	        19        0
             color[2]	        14        0
             color[3]	        20        0
             color[4]	        22        0
             color[5]	        23        0
             color[6]	        19        0
             color[7]	        18        0
             color[8]	        19        0
             color[9]	        16        0
             color[10]	        18        0
             color[11]	        18        0
             color[12]	        18        0
             color[13]	        21        0
             color[14]	        27        0
             color[15]	        26        0
             color[16]	        12        0
             color[17]	        12        0
             color[18]	        11        0
             color[19]	        10        0
             color[20]	         9        0
             color[21]	        15        0
             color[22]	        12        0
             color[23]	        14        0
             color[24]	        14        0
             color[25]	        16        0
             color[26]	        24        0
             color[27]	        17        0
             color[28]	        12        0
             color[29]	        16        0
             color[30]	        13        0
             color[31]	        17        0
