assigned to cpu 3
assigned priority -19
memsize=1536 KB, type=read, cpuid=3
stop at 1000
total sum = -1429405696
g_nread(bytes read) = 15730212864
elapsed = 0.91 sec ( 913088 usec )
CPU3: B/W = 16429.41 MB/s | CPU3: average = 3.71 ns
total llcache-events (accesses) : 434912402
total llcache-events (misses)   : 5101789
llcache-miss-rate               : 1.17%
LLC B/W  = 29071.62 MB/s
DRAM B/W = 341.03 MB/s
pid : 5746
             flags	page-count       MB  symbolic-flags			long-symbolic-flags
0x000000000000086c	       124        0  __RU_lA____M______________________	referenced,uptodate,lru,active,mmap
0x0000000000005808	         8        0  ___U_______Ma_b___________________	uptodate,mmap,anonymous,swapbacked
0x0000000000005868	       412        1  ___U_lA____Ma_b___________________	uptodate,lru,active,mmap,anonymous,swapbacked
0x000000000000586c	         1        0  __RU_lA____Ma_b___________________	referenced,uptodate,lru,active,mmap,anonymous,swapbacked
             total	       545        2

=============================================
Color Distribution for All Pages:
=============================================
             color[0]	        16        0
             color[1]	        19        0
             color[2]	        17        0
             color[3]	        18        0
             color[4]	        16        0
             color[5]	        17        0
             color[6]	        20        0
             color[7]	        20        0
             color[8]	        18        0
             color[9]	        18        0
             color[10]	        18        0
             color[11]	        19        0
             color[12]	        17        0
             color[13]	        21        0
             color[14]	        25        0
             color[15]	        20        0
             color[16]	        16        0
             color[17]	        16        0
             color[18]	        11        0
             color[19]	        13        0
             color[20]	        11        0
             color[21]	        11        0
             color[22]	        12        0
             color[23]	        13        0
             color[24]	        15        0
             color[25]	        16        0
             color[26]	        21        0
             color[27]	        21        0
             color[28]	        12        0
             color[29]	        14        0
             color[30]	        22        0
             color[31]	        22        0
