assigned to cpu 3
assigned priority -19
memsize=2048 KB, type=read, cpuid=3
stop at 1000
total sum = 1673265152
g_nread(bytes read) = 20973617152
elapsed = 1.88 sec ( 1876737 usec )
CPU3: B/W = 10657.86 MB/s | CPU3: average = 5.73 ns
total llcache-events (accesses) : 610618461
total llcache-events (misses)   : 53254967
llcache-miss-rate               : 8.72%
LLC B/W  = 19858.51 MB/s
DRAM B/W = 1731.96 MB/s
pid : 6326
             flags	page-count       MB  symbolic-flags			long-symbolic-flags
0x000000000000086c	       124        0  __RU_lA____M______________________	referenced,uptodate,lru,active,mmap
0x0000000000005808	         8        0  ___U_______Ma_b___________________	uptodate,mmap,anonymous,swapbacked
0x0000000000005868	       540        2  ___U_lA____Ma_b___________________	uptodate,lru,active,mmap,anonymous,swapbacked
0x000000000000586c	         1        0  __RU_lA____Ma_b___________________	referenced,uptodate,lru,active,mmap,anonymous,swapbacked
             total	       673        2

=============================================
Color Distribution for All Pages:
=============================================
             color[0]	        24        0
             color[1]	        24        0
             color[2]	        21        0
             color[3]	        23        0
             color[4]	        24        0
             color[5]	        25        0
             color[6]	        18        0
             color[7]	        23        0
             color[8]	        18        0
             color[9]	        17        0
             color[10]	        23        0
             color[11]	        22        0
             color[12]	        26        0
             color[13]	        23        0
             color[14]	        29        0
             color[15]	        28        0
             color[16]	        17        0
             color[17]	        19        0
             color[18]	        16        0
             color[19]	        16        0
             color[20]	        18        0
             color[21]	        16        0
             color[22]	        17        0
             color[23]	        18        0
             color[24]	        19        0
             color[25]	        17        0
             color[26]	        24        0
             color[27]	        27        0
             color[28]	        22        0
             color[29]	        22        0
             color[30]	        19        0
             color[31]	        18        0
