assigned to cpu 3
assigned priority -19
memsize=2048 KB, type=read, cpuid=3
stop at 1000
total sum = 1673265152
g_nread(bytes read) = 20973617152
elapsed = 2.03 sec ( 2031817 usec )
CPU3: B/W = 9844.39 MB/s | CPU3: average = 6.20 ns
total llcache-events (accesses) : 617660567
total llcache-events (misses)   : 64235242
llcache-miss-rate               : 10.40%
LLC B/W  = 18554.33 MB/s
DRAM B/W = 1929.61 MB/s
pid : 7149
             flags	page-count       MB  symbolic-flags			long-symbolic-flags
0x000000000000086c	       124        0  __RU_lA____M______________________	referenced,uptodate,lru,active,mmap
0x0000000000005808	         8        0  ___U_______Ma_b___________________	uptodate,mmap,anonymous,swapbacked
0x0000000000005868	       540        2  ___U_lA____Ma_b___________________	uptodate,lru,active,mmap,anonymous,swapbacked
0x000000000000586c	         1        0  __RU_lA____Ma_b___________________	referenced,uptodate,lru,active,mmap,anonymous,swapbacked
             total	       673        2

=============================================
Color Distribution for All Pages:
=============================================
             color[0]	        24        0
             color[1]	        26        0
             color[2]	        19        0
             color[3]	        22        0
             color[4]	        22        0
             color[5]	        23        0
             color[6]	        20        0
             color[7]	        20        0
             color[8]	        22        0
             color[9]	        22        0
             color[10]	        23        0
             color[11]	        20        0
             color[12]	        27        0
             color[13]	        26        0
             color[14]	        29        0
             color[15]	        29        0
             color[16]	        19        0
             color[17]	        20        0
             color[18]	        10        0
             color[19]	        13        0
             color[20]	        11        0
             color[21]	        19        0
             color[22]	        23        0
             color[23]	        19        0
             color[24]	        19        0
             color[25]	        16        0
             color[26]	        25        0
             color[27]	        30        0
             color[28]	        14        0
             color[29]	        22        0
             color[30]	        18        0
             color[31]	        21        0
