assigned to cpu 3
assigned priority -19
memsize=2048 KB, type=read, cpuid=3
stop at 1000
total sum = 1673265152
g_nread(bytes read) = 20973617152
elapsed = 2.10 sec ( 2097409 usec )
CPU3: B/W = 9536.53 MB/s | CPU3: average = 6.40 ns
total llcache-events (accesses) : 622381884
total llcache-events (misses)   : 72275359
llcache-miss-rate               : 11.61%
LLC B/W  = 18111.48 MB/s
DRAM B/W = 2103.23 MB/s
pid : 7257
             flags	page-count       MB  symbolic-flags			long-symbolic-flags
0x000000000000086c	       124        0  __RU_lA____M______________________	referenced,uptodate,lru,active,mmap
0x0000000000005808	         8        0  ___U_______Ma_b___________________	uptodate,mmap,anonymous,swapbacked
0x0000000000005868	       540        2  ___U_lA____Ma_b___________________	uptodate,lru,active,mmap,anonymous,swapbacked
0x000000000000586c	         1        0  __RU_lA____Ma_b___________________	referenced,uptodate,lru,active,mmap,anonymous,swapbacked
             total	       673        2

=============================================
Color Distribution for All Pages:
=============================================
             color[0]	        27        0
             color[1]	        28        0
             color[2]	        19        0
             color[3]	        20        0
             color[4]	        22        0
             color[5]	        28        0
             color[6]	        23        0
             color[7]	        19        0
             color[8]	        24        0
             color[9]	        25        0
             color[10]	        22        0
             color[11]	        19        0
             color[12]	        28        0
             color[13]	        29        0
             color[14]	        26        0
             color[15]	        26        0
             color[16]	        15        0
             color[17]	        15        0
             color[18]	        14        0
             color[19]	        14        0
             color[20]	        13        0
             color[21]	        12        0
             color[22]	        19        0
             color[23]	        19        0
             color[24]	        17        0
             color[25]	        19        0
             color[26]	        25        0
             color[27]	        27        0
             color[28]	        16        0
             color[29]	        22        0
             color[30]	        22        0
             color[31]	        19        0
