assigned to cpu 3
assigned priority -19
memsize=2048 KB, type=read, cpuid=3
stop at 1000
total sum = 1673265152
g_nread(bytes read) = 20973617152
elapsed = 1.87 sec ( 1874890 usec )
CPU3: B/W = 10668.36 MB/s | CPU3: average = 5.72 ns
total llcache-events (accesses) : 610338523
total llcache-events (misses)   : 53959793
llcache-miss-rate               : 8.84%
LLC B/W  = 19868.96 MB/s
DRAM B/W = 1756.61 MB/s
pid : 6650
             flags	page-count       MB  symbolic-flags			long-symbolic-flags
0x000000000000086c	       124        0  __RU_lA____M______________________	referenced,uptodate,lru,active,mmap
0x0000000000005808	         8        0  ___U_______Ma_b___________________	uptodate,mmap,anonymous,swapbacked
0x0000000000005868	       540        2  ___U_lA____Ma_b___________________	uptodate,lru,active,mmap,anonymous,swapbacked
0x000000000000586c	         1        0  __RU_lA____Ma_b___________________	referenced,uptodate,lru,active,mmap,anonymous,swapbacked
             total	       673        2

=============================================
Color Distribution for All Pages:
=============================================
             color[0]	        32        0
             color[1]	        30        0
             color[2]	        25        0
             color[3]	        23        0
             color[4]	        22        0
             color[5]	        27        0
             color[6]	        21        0
             color[7]	        20        0
             color[8]	        20        0
             color[9]	        22        0
             color[10]	        20        0
             color[11]	        23        0
             color[12]	        23        0
             color[13]	        22        0
             color[14]	        27        0
             color[15]	        24        0
             color[16]	        16        0
             color[17]	        18        0
             color[18]	        18        0
             color[19]	        16        0
             color[20]	        14        0
             color[21]	        16        0
             color[22]	        19        0
             color[23]	        21        0
             color[24]	        16        0
             color[25]	        17        0
             color[26]	        24        0
             color[27]	        24        0
             color[28]	        13        0
             color[29]	        19        0
             color[30]	        21        0
             color[31]	        20        0
