assigned to cpu 3
assigned priority -19
memsize=2048 KB, type=read, cpuid=3
stop at 1000
total sum = 1673265152
g_nread(bytes read) = 20973617152
elapsed = 1.97 sec ( 1968561 usec )
CPU3: B/W = 10160.72 MB/s | CPU3: average = 6.01 ns
total llcache-events (accesses) : 616393299
total llcache-events (misses)   : 59083232
llcache-miss-rate               : 9.59%
LLC B/W  = 19111.25 MB/s
DRAM B/W = 1831.87 MB/s
pid : 6449
             flags	page-count       MB  symbolic-flags			long-symbolic-flags
0x000000000000086c	       124        0  __RU_lA____M______________________	referenced,uptodate,lru,active,mmap
0x0000000000005808	         8        0  ___U_______Ma_b___________________	uptodate,mmap,anonymous,swapbacked
0x0000000000005868	       540        2  ___U_lA____Ma_b___________________	uptodate,lru,active,mmap,anonymous,swapbacked
0x000000000000586c	         1        0  __RU_lA____Ma_b___________________	referenced,uptodate,lru,active,mmap,anonymous,swapbacked
             total	       673        2

=============================================
Color Distribution for All Pages:
=============================================
             color[0]	        28        0
             color[1]	        25        0
             color[2]	        21        0
             color[3]	        23        0
             color[4]	        25        0
             color[5]	        26        0
             color[6]	        19        0
             color[7]	        18        0
             color[8]	        23        0
             color[9]	        24        0
             color[10]	        24        0
             color[11]	        22        0
             color[12]	        22        0
             color[13]	        20        0
             color[14]	        25        0
             color[15]	        21        0
             color[16]	        20        0
             color[17]	        21        0
             color[18]	        16        0
             color[19]	        17        0
             color[20]	        12        0
             color[21]	        10        0
             color[22]	        23        0
             color[23]	        19        0
             color[24]	        15        0
             color[25]	        17        0
             color[26]	        25        0
             color[27]	        26        0
             color[28]	        17        0
             color[29]	        20        0
             color[30]	        25        0
             color[31]	        24        0
