assigned to cpu 3
assigned priority -19
memsize=2048 KB, type=read, cpuid=3
stop at 1000
total sum = 1673265152
g_nread(bytes read) = 20973617152
elapsed = 2.13 sec ( 2125970 usec )
CPU3: B/W = 9408.41 MB/s | CPU3: average = 6.49 ns
total llcache-events (accesses) : 623612058
total llcache-events (misses)   : 74916325
llcache-miss-rate               : 12.01%
LLC B/W  = 17903.48 MB/s
DRAM B/W = 2150.80 MB/s
pid : 6889
             flags	page-count       MB  symbolic-flags			long-symbolic-flags
0x000000000000086c	       124        0  __RU_lA____M______________________	referenced,uptodate,lru,active,mmap
0x0000000000005808	         8        0  ___U_______Ma_b___________________	uptodate,mmap,anonymous,swapbacked
0x0000000000005868	       540        2  ___U_lA____Ma_b___________________	uptodate,lru,active,mmap,anonymous,swapbacked
0x000000000000586c	         1        0  __RU_lA____Ma_b___________________	referenced,uptodate,lru,active,mmap,anonymous,swapbacked
             total	       673        2

=============================================
Color Distribution for All Pages:
=============================================
             color[0]	        31        0
             color[1]	        27        0
             color[2]	        20        0
             color[3]	        24        0
             color[4]	        22        0
             color[5]	        24        0
             color[6]	        20        0
             color[7]	        19        0
             color[8]	        27        0
             color[9]	        23        0
             color[10]	        20        0
             color[11]	        17        0
             color[12]	        27        0
             color[13]	        24        0
             color[14]	        29        0
             color[15]	        26        0
             color[16]	        18        0
             color[17]	        21        0
             color[18]	        15        0
             color[19]	        13        0
             color[20]	        13        0
             color[21]	        14        0
             color[22]	        23        0
             color[23]	        21        0
             color[24]	        18        0
             color[25]	        15        0
             color[26]	        25        0
             color[27]	        25        0
             color[28]	        11        0
             color[29]	        18        0
             color[30]	        19        0
             color[31]	        24        0
