assigned to cpu 3
assigned priority -19
memsize=512 KB, type=read, cpuid=3
stop at 1000
total sum = -118554624
g_nread(bytes read) = 5243404288
elapsed = 0.26 sec ( 260890 usec )
CPU3: B/W = 19167.08 MB/s | CPU3: average = 3.18 ns
total llcache-events (accesses) : 145327856
total llcache-events (misses)   : 8610
llcache-miss-rate               : 0.01%
LLC B/W  = 33999.42 MB/s
DRAM B/W = 2.01 MB/s
pid : 3322
             flags	page-count       MB  symbolic-flags			long-symbolic-flags
0x000000000000086c	       124        0  __RU_lA____M______________________	referenced,uptodate,lru,active,mmap
0x0000000000005808	         8        0  ___U_______Ma_b___________________	uptodate,mmap,anonymous,swapbacked
0x0000000000005868	       156        0  ___U_lA____Ma_b___________________	uptodate,lru,active,mmap,anonymous,swapbacked
0x000000000000586c	         1        0  __RU_lA____Ma_b___________________	referenced,uptodate,lru,active,mmap,anonymous,swapbacked
             total	       289        1

=============================================
Color Distribution for All Pages:
=============================================
             color[0]	        10        0
             color[1]	        10        0
             color[2]	         9        0
             color[3]	        13        0
             color[4]	         9        0
             color[5]	         7        0
             color[6]	        15        0
             color[7]	         6        0
             color[8]	         9        0
             color[9]	        10        0
             color[10]	        11        0
             color[11]	        15        0
             color[12]	         5        0
             color[13]	         8        0
             color[14]	        12        0
             color[15]	        11        0
             color[16]	         9        0
             color[17]	         9        0
             color[18]	         8        0
             color[19]	         9        0
             color[20]	         7        0
             color[21]	         8        0
             color[22]	         4        0
             color[23]	         7        0
             color[24]	         8        0
             color[25]	        12        0
             color[26]	         6        0
             color[27]	         7        0
             color[28]	        10        0
             color[29]	         8        0
             color[30]	        10        0
             color[31]	         7        0
