assigned to cpu 3
assigned priority -19
memsize=512 KB, type=read, cpuid=3
stop at 1000
total sum = -118554624
g_nread(bytes read) = 5243404288
elapsed = 0.26 sec ( 260239 usec )
CPU3: B/W = 19215.03 MB/s | CPU3: average = 3.18 ns
total llcache-events (accesses) : 145187387
total llcache-events (misses)   : 9077
llcache-miss-rate               : 0.01%
LLC B/W  = 34051.53 MB/s
DRAM B/W = 2.13 MB/s
pid : 3562
             flags	page-count       MB  symbolic-flags			long-symbolic-flags
0x000000000000086c	       124        0  __RU_lA____M______________________	referenced,uptodate,lru,active,mmap
0x0000000000005808	         8        0  ___U_______Ma_b___________________	uptodate,mmap,anonymous,swapbacked
0x0000000000005868	       156        0  ___U_lA____Ma_b___________________	uptodate,lru,active,mmap,anonymous,swapbacked
0x000000000000586c	         1        0  __RU_lA____Ma_b___________________	referenced,uptodate,lru,active,mmap,anonymous,swapbacked
             total	       289        1

=============================================
Color Distribution for All Pages:
=============================================
             color[0]	        12        0
             color[1]	        11        0
             color[2]	        11        0
             color[3]	         9        0
             color[4]	         9        0
             color[5]	        12        0
             color[6]	        10        0
             color[7]	         8        0
             color[8]	         9        0
             color[9]	        11        0
             color[10]	        12        0
             color[11]	        14        0
             color[12]	        10        0
             color[13]	        12        0
             color[14]	        10        0
             color[15]	        12        0
             color[16]	         3        0
             color[17]	        11        0
             color[18]	         5        0
             color[19]	         6        0
             color[20]	         6        0
             color[21]	         3        0
             color[22]	         6        0
             color[23]	         8        0
             color[24]	         9        0
             color[25]	         9        0
             color[26]	        11        0
             color[27]	        11        0
             color[28]	         4        0
             color[29]	         8        0
             color[30]	         8        0
             color[31]	         9        0
