assigned to cpu 0
memsize=1024 KB, type=read, cpuid=0
stop at 1000
total sum = 21475673112576
g_nread(bytes read) = 10486808576
elapsed = 0.46 sec ( 458224 usec )
CPU0: B/W = 21825.57 MB/s | CPU0: average = 2.80 ns
total llcache-events (accesses) : 163879226
total llcache-events (misses)   : 2
llcache-miss-rate               : 0.00%
LLC B/W  = 21828.61 MB/s
DRAM B/W = 0.00 MB/s
pid : 5219
             flags	page-count       MB  symbolic-flags			long-symbolic-flags
0x0000000000000804	         1        0  __R________M______________________	referenced,mmap
0x000000000000086c	       384        1  __RU_lA____M______________________	referenced,uptodate,lru,active,mmap
0x0000000000005848	         5        0  ___U__A____Ma_b___________________	uptodate,active,mmap,anonymous,swapbacked
0x0000000000005868	       294        1  ___U_lA____Ma_b___________________	uptodate,lru,active,mmap,anonymous,swapbacked
0x000000000000586c	         1        0  __RU_lA____Ma_b___________________	referenced,uptodate,lru,active,mmap,anonymous,swapbacked
             total	       685        2

=============================================
Color Distribution for All Pages:
=============================================
             color[0]	        33        0
             color[1]	        28        0
             color[2]	        18        0
             color[3]	        29        0
             color[4]	        15        0
             color[5]	        24        0
             color[6]	        20        0
             color[7]	        19        0
             color[8]	        20        0
             color[9]	        19        0
             color[10]	        15        0
             color[11]	        16        0
             color[12]	        24        0
             color[13]	        27        0
             color[14]	        21        0
             color[15]	        17        0
             color[16]	        28        0
             color[17]	        26        0
             color[18]	        27        0
             color[19]	        23        0
             color[20]	        20        0
             color[21]	        21        0
             color[22]	        24        0
             color[23]	        22        0
             color[24]	        19        0
             color[25]	        14        0
             color[26]	        11        0
             color[27]	        13        0
             color[28]	        26        0
             color[29]	        22        0
             color[30]	        22        0
             color[31]	        22        0
