assigned to cpu 0
memsize=1024 KB, type=read, cpuid=0
stop at 1000
total sum = 21475673112576
g_nread(bytes read) = 10486808576
elapsed = 0.47 sec ( 470049 usec )
CPU0: B/W = 21276.51 MB/s | CPU0: average = 2.87 ns
total llcache-events (accesses) : 163879101
total llcache-events (misses)   : 1445385
llcache-miss-rate               : 0.88%
LLC B/W  = 21279.46 MB/s
DRAM B/W = 187.68 MB/s
pid : 5196
             flags	page-count       MB  symbolic-flags			long-symbolic-flags
0x0000000000000800	         1        0  ___________M______________________	mmap
0x000000000000086c	       385        1  __RU_lA____M______________________	referenced,uptodate,lru,active,mmap
0x0000000000005848	         5        0  ___U__A____Ma_b___________________	uptodate,active,mmap,anonymous,swapbacked
0x0000000000005868	       293        1  ___U_lA____Ma_b___________________	uptodate,lru,active,mmap,anonymous,swapbacked
0x000000000000586c	         1        0  __RU_lA____Ma_b___________________	referenced,uptodate,lru,active,mmap,anonymous,swapbacked
             total	       685        2

=============================================
Color Distribution for All Pages:
=============================================
             color[0]	        28        0
             color[1]	        25        0
             color[2]	        20        0
             color[3]	        22        0
             color[4]	        23        0
             color[5]	        20        0
             color[6]	        21        0
             color[7]	        22        0
             color[8]	        24        0
             color[9]	        22        0
             color[10]	        19        0
             color[11]	        17        0
             color[12]	        31        0
             color[13]	        33        0
             color[14]	        25        0
             color[15]	        18        0
             color[16]	        24        0
             color[17]	        25        0
             color[18]	        29        0
             color[19]	        28        0
             color[20]	        20        0
             color[21]	        21        0
             color[22]	        21        0
             color[23]	        17        0
             color[24]	         9        0
             color[25]	        11        0
             color[26]	         6        0
             color[27]	        12        0
             color[28]	        25        0
             color[29]	        20        0
             color[30]	        23        0
             color[31]	        24        0
