assigned to cpu 0
memsize=1024 KB, type=read, cpuid=0
stop at 1000
total sum = 21475673112576
g_nread(bytes read) = 10486808576
elapsed = 0.46 sec ( 464881 usec )
CPU0: B/W = 21513.03 MB/s | CPU0: average = 2.84 ns
total llcache-events (accesses) : 163878954
total llcache-events (misses)   : 700081
llcache-miss-rate               : 0.43%
LLC B/W  = 21516.00 MB/s
DRAM B/W = 91.92 MB/s
pid : 5414
             flags	page-count       MB  symbolic-flags			long-symbolic-flags
0x0000000000000800	         1        0  ___________M______________________	mmap
0x000000000000086c	       372        1  __RU_lA____M______________________	referenced,uptodate,lru,active,mmap
0x0000000000005848	         5        0  ___U__A____Ma_b___________________	uptodate,active,mmap,anonymous,swapbacked
0x0000000000005868	       295        1  ___U_lA____Ma_b___________________	uptodate,lru,active,mmap,anonymous,swapbacked
0x000000000000586c	         1        0  __RU_lA____Ma_b___________________	referenced,uptodate,lru,active,mmap,anonymous,swapbacked
             total	       674        2

=============================================
Color Distribution for All Pages:
=============================================
             color[0]	        19        0
             color[1]	        19        0
             color[2]	        22        0
             color[3]	        26        0
             color[4]	        13        0
             color[5]	        21        0
             color[6]	        14        0
             color[7]	        12        0
             color[8]	        14        0
             color[9]	        17        0
             color[10]	        20        0
             color[11]	        21        0
             color[12]	        27        0
             color[13]	        26        0
             color[14]	        24        0
             color[15]	        22        0
             color[16]	        27        0
             color[17]	        24        0
             color[18]	        25        0
             color[19]	        26        0
             color[20]	        17        0
             color[21]	        21        0
             color[22]	        26        0
             color[23]	        22        0
             color[24]	        15        0
             color[25]	        18        0
             color[26]	        17        0
             color[27]	        16        0
             color[28]	        28        0
             color[29]	        27        0
             color[30]	        27        0
             color[31]	        21        0
