assigned to cpu 0
memsize=1024 KB, type=read, cpuid=0
stop at 1000
total sum = 21475673112576
g_nread(bytes read) = 10486808576
elapsed = 0.46 sec ( 461390 usec )
CPU0: B/W = 21675.81 MB/s | CPU0: average = 2.82 ns
total llcache-events (accesses) : 163878903
total llcache-events (misses)   : 320715
llcache-miss-rate               : 0.20%
LLC B/W  = 21678.79 MB/s
DRAM B/W = 42.43 MB/s
pid : 5335
             flags	page-count       MB  symbolic-flags			long-symbolic-flags
0x0000000000000800	         1        0  ___________M______________________	mmap
0x000000000000086c	       372        1  __RU_lA____M______________________	referenced,uptodate,lru,active,mmap
0x0000000000005848	         5        0  ___U__A____Ma_b___________________	uptodate,active,mmap,anonymous,swapbacked
0x0000000000005868	       294        1  ___U_lA____Ma_b___________________	uptodate,lru,active,mmap,anonymous,swapbacked
0x000000000000586c	         1        0  __RU_lA____Ma_b___________________	referenced,uptodate,lru,active,mmap,anonymous,swapbacked
             total	       673        2

=============================================
Color Distribution for All Pages:
=============================================
             color[0]	        25        0
             color[1]	        28        0
             color[2]	        20        0
             color[3]	        24        0
             color[4]	        13        0
             color[5]	        19        0
             color[6]	        18        0
             color[7]	        17        0
             color[8]	        17        0
             color[9]	        17        0
             color[10]	        19        0
             color[11]	        21        0
             color[12]	        25        0
             color[13]	        28        0
             color[14]	        26        0
             color[15]	        22        0
             color[16]	        24        0
             color[17]	        24        0
             color[18]	        23        0
             color[19]	        21        0
             color[20]	        20        0
             color[21]	        23        0
             color[22]	        24        0
             color[23]	        21        0
             color[24]	        18        0
             color[25]	        18        0
             color[26]	        16        0
             color[27]	        14        0
             color[28]	        26        0
             color[29]	        26        0
             color[30]	        21        0
             color[31]	        15        0
