assigned to cpu 0
memsize=1024 KB, type=read, cpuid=0
stop at 1000
total sum = 21475673112576
g_nread(bytes read) = 10486808576
elapsed = 0.46 sec ( 458282 usec )
CPU0: B/W = 21822.81 MB/s | CPU0: average = 2.80 ns
total llcache-events (accesses) : 163878998
total llcache-events (misses)   : 0
llcache-miss-rate               : 0.00%
LLC B/W  = 21825.82 MB/s
DRAM B/W = 0.00 MB/s
pid : 4902
             flags	page-count       MB  symbolic-flags			long-symbolic-flags
0x0000000000000804	         1        0  __R________M______________________	referenced,mmap
0x000000000000086c	       377        1  __RU_lA____M______________________	referenced,uptodate,lru,active,mmap
0x0000000000005848	         5        0  ___U__A____Ma_b___________________	uptodate,active,mmap,anonymous,swapbacked
0x0000000000005868	       293        1  ___U_lA____Ma_b___________________	uptodate,lru,active,mmap,anonymous,swapbacked
0x000000000000586c	         1        0  __RU_lA____Ma_b___________________	referenced,uptodate,lru,active,mmap,anonymous,swapbacked
             total	       677        2

=============================================
Color Distribution for All Pages:
=============================================
             color[0]	        23        0
             color[1]	        20        0
             color[2]	        21        0
             color[3]	        23        0
             color[4]	        15        0
             color[5]	        23        0
             color[6]	        12        0
             color[7]	        15        0
             color[8]	        21        0
             color[9]	        20        0
             color[10]	        24        0
             color[11]	        19        0
             color[12]	        27        0
             color[13]	        26        0
             color[14]	        19        0
             color[15]	        24        0
             color[16]	        28        0
             color[17]	        27        0
             color[18]	        28        0
             color[19]	        27        0
             color[20]	        21        0
             color[21]	        22        0
             color[22]	        24        0
             color[23]	        20        0
             color[24]	        17        0
             color[25]	        18        0
             color[26]	         9        0
             color[27]	        10        0
             color[28]	        26        0
             color[29]	        26        0
             color[30]	        21        0
             color[31]	        21        0
