assigned to cpu 0
memsize=1024 KB, type=read, cpuid=0
stop at 1000
total sum = 21475673112576
g_nread(bytes read) = 10486808576
elapsed = 0.46 sec ( 461520 usec )
CPU0: B/W = 21669.70 MB/s | CPU0: average = 2.82 ns
total llcache-events (accesses) : 163880008
total llcache-events (misses)   : 267975
llcache-miss-rate               : 0.16%
LLC B/W  = 21672.82 MB/s
DRAM B/W = 35.44 MB/s
pid : 5817
             flags	page-count       MB  symbolic-flags			long-symbolic-flags
0x0000000000000800	         1        0  ___________M______________________	mmap
0x000000000000086c	       395        1  __RU_lA____M______________________	referenced,uptodate,lru,active,mmap
0x0000000000005848	         5        0  ___U__A____Ma_b___________________	uptodate,active,mmap,anonymous,swapbacked
0x0000000000005868	       294        1  ___U_lA____Ma_b___________________	uptodate,lru,active,mmap,anonymous,swapbacked
0x000000000000586c	         1        0  __RU_lA____Ma_b___________________	referenced,uptodate,lru,active,mmap,anonymous,swapbacked
             total	       696        2

=============================================
Color Distribution for All Pages:
=============================================
             color[0]	        23        0
             color[1]	        19        0
             color[2]	        24        0
             color[3]	        28        0
             color[4]	        19        0
             color[5]	        25        0
             color[6]	        16        0
             color[7]	        15        0
             color[8]	        21        0
             color[9]	        23        0
             color[10]	        20        0
             color[11]	        24        0
             color[12]	        30        0
             color[13]	        28        0
             color[14]	        28        0
             color[15]	        26        0
             color[16]	        19        0
             color[17]	        21        0
             color[18]	        24        0
             color[19]	        23        0
             color[20]	        19        0
             color[21]	        20        0
             color[22]	        25        0
             color[23]	        22        0
             color[24]	        12        0
             color[25]	        14        0
             color[26]	        14        0
             color[27]	        17        0
             color[28]	        25        0
             color[29]	        24        0
             color[30]	        26        0
             color[31]	        22        0
