assigned to cpu 0
memsize=1024 KB, type=read, cpuid=0
stop at 1000
total sum = 21475673112576
g_nread(bytes read) = 10486808576
elapsed = 0.46 sec ( 459798 usec )
CPU0: B/W = 21750.86 MB/s | CPU0: average = 2.81 ns
total llcache-events (accesses) : 163879326
total llcache-events (misses)   : 121773
llcache-miss-rate               : 0.07%
LLC B/W  = 21753.90 MB/s
DRAM B/W = 16.16 MB/s
pid : 5768
             flags	page-count       MB  symbolic-flags			long-symbolic-flags
0x0000000000000804	         1        0  __R________M______________________	referenced,mmap
0x000000000000086c	       372        1  __RU_lA____M______________________	referenced,uptodate,lru,active,mmap
0x0000000000005848	         5        0  ___U__A____Ma_b___________________	uptodate,active,mmap,anonymous,swapbacked
0x0000000000005868	       294        1  ___U_lA____Ma_b___________________	uptodate,lru,active,mmap,anonymous,swapbacked
0x000000000000586c	         1        0  __RU_lA____Ma_b___________________	referenced,uptodate,lru,active,mmap,anonymous,swapbacked
             total	       673        2

=============================================
Color Distribution for All Pages:
=============================================
             color[0]	        17        0
             color[1]	        21        0
             color[2]	        24        0
             color[3]	        25        0
             color[4]	        16        0
             color[5]	        15        0
             color[6]	        19        0
             color[7]	        20        0
             color[8]	        19        0
             color[9]	        21        0
             color[10]	        17        0
             color[11]	        19        0
             color[12]	        26        0
             color[13]	        29        0
             color[14]	        25        0
             color[15]	        25        0
             color[16]	        20        0
             color[17]	        20        0
             color[18]	        27        0
             color[19]	        25        0
             color[20]	        19        0
             color[21]	        21        0
             color[22]	        22        0
             color[23]	        23        0
             color[24]	        15        0
             color[25]	        17        0
             color[26]	        14        0
             color[27]	        14        0
             color[28]	        26        0
             color[29]	        24        0
             color[30]	        25        0
             color[31]	        23        0
