assigned to cpu 0
memsize=1536 KB, type=read, cpuid=0
stop at 1000
total sum = 48321247641600
g_nread(bytes read) = 15730212864
elapsed = 0.70 sec ( 700342 usec )
CPU0: B/W = 21420.25 MB/s | CPU0: average = 2.85 ns
total llcache-events (accesses) : 245807406
total llcache-events (misses)   : 1451404
llcache-miss-rate               : 0.59%
LLC B/W  = 21422.24 MB/s
DRAM B/W = 126.49 MB/s
pid : 6143
             flags	page-count       MB  symbolic-flags			long-symbolic-flags
0x0000000000000804	         1        0  __R________M______________________	referenced,mmap
0x000000000000086c	       384        1  __RU_lA____M______________________	referenced,uptodate,lru,active,mmap
0x0000000000005848	         5        0  ___U__A____Ma_b___________________	uptodate,active,mmap,anonymous,swapbacked
0x0000000000005868	       421        1  ___U_lA____Ma_b___________________	uptodate,lru,active,mmap,anonymous,swapbacked
0x000000000000586c	         1        0  __RU_lA____Ma_b___________________	referenced,uptodate,lru,active,mmap,anonymous,swapbacked
             total	       812        3

=============================================
Color Distribution for All Pages:
=============================================
             color[0]	        22        0
             color[1]	        23        0
             color[2]	        29        0
             color[3]	        29        0
             color[4]	        25        0
             color[5]	        24        0
             color[6]	        22        0
             color[7]	        24        0
             color[8]	        24        0
             color[9]	        22        0
             color[10]	        36        0
             color[11]	        36        0
             color[12]	        28        0
             color[13]	        33        0
             color[14]	        30        0
             color[15]	        27        0
             color[16]	        23        0
             color[17]	        22        0
             color[18]	        27        0
             color[19]	        23        0
             color[20]	        20        0
             color[21]	        23        0
             color[22]	        31        0
             color[23]	        28        0
             color[24]	        18        0
             color[25]	        20        0
             color[26]	        14        0
             color[27]	        17        0
             color[28]	        29        0
             color[29]	        30        0
             color[30]	        27        0
             color[31]	        26        0
