assigned to cpu 0
memsize=1536 KB, type=read, cpuid=0
stop at 1000
total sum = 48321247641600
g_nread(bytes read) = 15730212864
elapsed = 0.70 sec ( 699790 usec )
CPU0: B/W = 21437.14 MB/s | CPU0: average = 2.85 ns
total llcache-events (accesses) : 245807468
total llcache-events (misses)   : 1803372
llcache-miss-rate               : 0.73%
LLC B/W  = 21439.14 MB/s
DRAM B/W = 157.29 MB/s
pid : 7035
             flags	page-count       MB  symbolic-flags			long-symbolic-flags
0x0000000000000800	         1        0  ___________M______________________	mmap
0x000000000000086c	       376        1  __RU_lA____M______________________	referenced,uptodate,lru,active,mmap
0x0000000000005848	         5        0  ___U__A____Ma_b___________________	uptodate,active,mmap,anonymous,swapbacked
0x0000000000005868	       421        1  ___U_lA____Ma_b___________________	uptodate,lru,active,mmap,anonymous,swapbacked
0x000000000000586c	         1        0  __RU_lA____Ma_b___________________	referenced,uptodate,lru,active,mmap,anonymous,swapbacked
             total	       804        3

=============================================
Color Distribution for All Pages:
=============================================
             color[0]	        23        0
             color[1]	        23        0
             color[2]	        36        0
             color[3]	        33        0
             color[4]	        20        0
             color[5]	        20        0
             color[6]	        20        0
             color[7]	        23        0
             color[8]	        15        0
             color[9]	        22        0
             color[10]	        33        0
             color[11]	        33        0
             color[12]	        31        0
             color[13]	        32        0
             color[14]	        25        0
             color[15]	        26        0
             color[16]	        29        0
             color[17]	        28        0
             color[18]	        30        0
             color[19]	        29        0
             color[20]	        24        0
             color[21]	        27        0
             color[22]	        31        0
             color[23]	        29        0
             color[24]	        15        0
             color[25]	        17        0
             color[26]	        12        0
             color[27]	        17        0
             color[28]	        27        0
             color[29]	        24        0
             color[30]	        27        0
             color[31]	        23        0
