assigned to cpu 0
memsize=1536 KB, type=read, cpuid=0
stop at 1000
total sum = 48321247641600
g_nread(bytes read) = 15730212864
elapsed = 0.70 sec ( 704039 usec )
CPU0: B/W = 21307.77 MB/s | CPU0: average = 2.86 ns
total llcache-events (accesses) : 245807815
total llcache-events (misses)   : 1552263
llcache-miss-rate               : 0.63%
LLC B/W  = 21309.78 MB/s
DRAM B/W = 134.57 MB/s
pid : 7157
             flags	page-count       MB  symbolic-flags			long-symbolic-flags
0x0000000000000804	         1        0  __R________M______________________	referenced,mmap
0x000000000000086c	       391        1  __RU_lA____M______________________	referenced,uptodate,lru,active,mmap
0x0000000000005848	         5        0  ___U__A____Ma_b___________________	uptodate,active,mmap,anonymous,swapbacked
0x0000000000005868	       422        1  ___U_lA____Ma_b___________________	uptodate,lru,active,mmap,anonymous,swapbacked
0x000000000000586c	         1        0  __RU_lA____Ma_b___________________	referenced,uptodate,lru,active,mmap,anonymous,swapbacked
             total	       820        3

=============================================
Color Distribution for All Pages:
=============================================
             color[0]	        29        0
             color[1]	        22        0
             color[2]	        27        0
             color[3]	        31        0
             color[4]	        19        0
             color[5]	        18        0
             color[6]	        21        0
             color[7]	        18        0
             color[8]	        28        0
             color[9]	        30        0
             color[10]	        22        0
             color[11]	        24        0
             color[12]	        32        0
             color[13]	        32        0
             color[14]	        31        0
             color[15]	        21        0
             color[16]	        29        0
             color[17]	        27        0
             color[18]	        38        0
             color[19]	        31        0
             color[20]	        32        0
             color[21]	        33        0
             color[22]	        23        0
             color[23]	        18        0
             color[24]	        16        0
             color[25]	        15        0
             color[26]	        18        0
             color[27]	        14        0
             color[28]	        34        0
             color[29]	        25        0
             color[30]	        28        0
             color[31]	        34        0
