assigned to cpu 0
memsize=1536 KB, type=read, cpuid=0
stop at 1000
total sum = 48321247641600
g_nread(bytes read) = 15730212864
elapsed = 0.69 sec ( 690883 usec )
CPU0: B/W = 21713.52 MB/s | CPU0: average = 2.81 ns
total llcache-events (accesses) : 245807548
total llcache-events (misses)   : 350059
llcache-miss-rate               : 0.14%
LLC B/W  = 21715.55 MB/s
DRAM B/W = 30.93 MB/s
pid : 6842
             flags	page-count       MB  symbolic-flags			long-symbolic-flags
0x0000000000000800	         1        0  ___________M______________________	mmap
0x000000000000086c	       383        1  __RU_lA____M______________________	referenced,uptodate,lru,active,mmap
0x0000000000005848	         5        0  ___U__A____Ma_b___________________	uptodate,active,mmap,anonymous,swapbacked
0x0000000000005868	       422        1  ___U_lA____Ma_b___________________	uptodate,lru,active,mmap,anonymous,swapbacked
0x000000000000586c	         1        0  __RU_lA____Ma_b___________________	referenced,uptodate,lru,active,mmap,anonymous,swapbacked
             total	       812        3

=============================================
Color Distribution for All Pages:
=============================================
             color[0]	        29        0
             color[1]	        23        0
             color[2]	        30        0
             color[3]	        30        0
             color[4]	        17        0
             color[5]	        20        0
             color[6]	        23        0
             color[7]	        29        0
             color[8]	        22        0
             color[9]	        25        0
             color[10]	        27        0
             color[11]	        29        0
             color[12]	        37        0
             color[13]	        31        0
             color[14]	        33        0
             color[15]	        28        0
             color[16]	        29        0
             color[17]	        27        0
             color[18]	        30        0
             color[19]	        29        0
             color[20]	        21        0
             color[21]	        21        0
             color[22]	        31        0
             color[23]	        27        0
             color[24]	        16        0
             color[25]	        23        0
             color[26]	        12        0
             color[27]	        14        0
             color[28]	        28        0
             color[29]	        27        0
             color[30]	        24        0
             color[31]	        20        0
