assigned to cpu 0
memsize=1536 KB, type=read, cpuid=0
stop at 1000
total sum = 48321247641600
g_nread(bytes read) = 15730212864
elapsed = 0.70 sec ( 695522 usec )
CPU0: B/W = 21568.69 MB/s | CPU0: average = 2.83 ns
total llcache-events (accesses) : 245807495
total llcache-events (misses)   : 780062
llcache-miss-rate               : 0.32%
LLC B/W  = 21570.70 MB/s
DRAM B/W = 68.45 MB/s
pid : 6599
             flags	page-count       MB  symbolic-flags			long-symbolic-flags
0x0000000000000800	         1        0  ___________M______________________	mmap
0x000000000000086c	       386        1  __RU_lA____M______________________	referenced,uptodate,lru,active,mmap
0x0000000000005848	         5        0  ___U__A____Ma_b___________________	uptodate,active,mmap,anonymous,swapbacked
0x0000000000005868	       422        1  ___U_lA____Ma_b___________________	uptodate,lru,active,mmap,anonymous,swapbacked
0x000000000000586c	         1        0  __RU_lA____Ma_b___________________	referenced,uptodate,lru,active,mmap,anonymous,swapbacked
             total	       815        3

=============================================
Color Distribution for All Pages:
=============================================
             color[0]	        28        0
             color[1]	        24        0
             color[2]	        29        0
             color[3]	        30        0
             color[4]	        18        0
             color[5]	        24        0
             color[6]	        25        0
             color[7]	        26        0
             color[8]	        19        0
             color[9]	        22        0
             color[10]	        25        0
             color[11]	        29        0
             color[12]	        31        0
             color[13]	        31        0
             color[14]	        23        0
             color[15]	        20        0
             color[16]	        31        0
             color[17]	        30        0
             color[18]	        31        0
             color[19]	        33        0
             color[20]	        21        0
             color[21]	        24        0
             color[22]	        33        0
             color[23]	        27        0
             color[24]	        17        0
             color[25]	        21        0
             color[26]	        17        0
             color[27]	        15        0
             color[28]	        27        0
             color[29]	        32        0
             color[30]	        25        0
             color[31]	        27        0
