assigned to cpu 0
memsize=1536 KB, type=read, cpuid=0
stop at 1000
total sum = 48321247641600
g_nread(bytes read) = 15730212864
elapsed = 0.69 sec ( 687249 usec )
CPU0: B/W = 21828.33 MB/s | CPU0: average = 2.80 ns
total llcache-events (accesses) : 245807631
total llcache-events (misses)   : 2
llcache-miss-rate               : 0.00%
LLC B/W  = 21830.38 MB/s
DRAM B/W = 0.00 MB/s
pid : 7040
             flags	page-count       MB  symbolic-flags			long-symbolic-flags
0x0000000000000804	         1        0  __R________M______________________	referenced,mmap
0x000000000000086c	       383        1  __RU_lA____M______________________	referenced,uptodate,lru,active,mmap
0x0000000000005848	         5        0  ___U__A____Ma_b___________________	uptodate,active,mmap,anonymous,swapbacked
0x0000000000005868	       421        1  ___U_lA____Ma_b___________________	uptodate,lru,active,mmap,anonymous,swapbacked
0x000000000000586c	         1        0  __RU_lA____Ma_b___________________	referenced,uptodate,lru,active,mmap,anonymous,swapbacked
             total	       811        3

=============================================
Color Distribution for All Pages:
=============================================
             color[0]	        30        0
             color[1]	        24        0
             color[2]	        29        0
             color[3]	        25        0
             color[4]	        23        0
             color[5]	        27        0
             color[6]	        22        0
             color[7]	        24        0
             color[8]	        20        0
             color[9]	        25        0
             color[10]	        31        0
             color[11]	        31        0
             color[12]	        38        0
             color[13]	        40        0
             color[14]	        29        0
             color[15]	        25        0
             color[16]	        25        0
             color[17]	        27        0
             color[18]	        32        0
             color[19]	        28        0
             color[20]	        19        0
             color[21]	        22        0
             color[22]	        28        0
             color[23]	        26        0
             color[24]	        13        0
             color[25]	        18        0
             color[26]	        14        0
             color[27]	        19        0
             color[28]	        23        0
             color[29]	        22        0
             color[30]	        26        0
             color[31]	        26        0
