assigned to cpu 0
memsize=1536 KB, type=read, cpuid=0
stop at 1000
total sum = 48321247641600
g_nread(bytes read) = 15730212864
elapsed = 0.69 sec ( 689368 usec )
CPU0: B/W = 21761.24 MB/s | CPU0: average = 2.80 ns
total llcache-events (accesses) : 245807746
total llcache-events (misses)   : 100700
llcache-miss-rate               : 0.04%
LLC B/W  = 21763.29 MB/s
DRAM B/W = 8.92 MB/s
pid : 6749
             flags	page-count       MB  symbolic-flags			long-symbolic-flags
0x0000000000000800	         1        0  ___________M______________________	mmap
0x000000000000086c	       397        1  __RU_lA____M______________________	referenced,uptodate,lru,active,mmap
0x0000000000005848	         5        0  ___U__A____Ma_b___________________	uptodate,active,mmap,anonymous,swapbacked
0x0000000000005868	       421        1  ___U_lA____Ma_b___________________	uptodate,lru,active,mmap,anonymous,swapbacked
0x000000000000586c	         1        0  __RU_lA____Ma_b___________________	referenced,uptodate,lru,active,mmap,anonymous,swapbacked
             total	       825        3

=============================================
Color Distribution for All Pages:
=============================================
             color[0]	        29        0
             color[1]	        26        0
             color[2]	        33        0
             color[3]	        32        0
             color[4]	        27        0
             color[5]	        28        0
             color[6]	        20        0
             color[7]	        20        0
             color[8]	        21        0
             color[9]	        22        0
             color[10]	        26        0
             color[11]	        24        0
             color[12]	        39        0
             color[13]	        32        0
             color[14]	        28        0
             color[15]	        24        0
             color[16]	        28        0
             color[17]	        26        0
             color[18]	        30        0
             color[19]	        25        0
             color[20]	        21        0
             color[21]	        23        0
             color[22]	        28        0
             color[23]	        26        0
             color[24]	        20        0
             color[25]	        24        0
             color[26]	        16        0
             color[27]	        15        0
             color[28]	        29        0
             color[29]	        31        0
             color[30]	        28        0
             color[31]	        24        0
