assigned to cpu 0
memsize=1536 KB, type=read, cpuid=0
stop at 1000
total sum = 48321247641600
g_nread(bytes read) = 15730212864
elapsed = 0.69 sec ( 688373 usec )
CPU0: B/W = 21792.69 MB/s | CPU0: average = 2.80 ns
total llcache-events (accesses) : 245807564
total llcache-events (misses)   : 51322
llcache-miss-rate               : 0.02%
LLC B/W  = 21794.73 MB/s
DRAM B/W = 4.55 MB/s
pid : 6994
             flags	page-count       MB  symbolic-flags			long-symbolic-flags
0x0000000000000804	         1        0  __R________M______________________	referenced,mmap
0x000000000000086c	       397        1  __RU_lA____M______________________	referenced,uptodate,lru,active,mmap
0x0000000000005848	         5        0  ___U__A____Ma_b___________________	uptodate,active,mmap,anonymous,swapbacked
0x0000000000005868	       422        1  ___U_lA____Ma_b___________________	uptodate,lru,active,mmap,anonymous,swapbacked
0x000000000000586c	         1        0  __RU_lA____Ma_b___________________	referenced,uptodate,lru,active,mmap,anonymous,swapbacked
             total	       826        3

=============================================
Color Distribution for All Pages:
=============================================
             color[0]	        27        0
             color[1]	        26        0
             color[2]	        30        0
             color[3]	        31        0
             color[4]	        16        0
             color[5]	        22        0
             color[6]	        19        0
             color[7]	        22        0
             color[8]	        25        0
             color[9]	        25        0
             color[10]	        27        0
             color[11]	        30        0
             color[12]	        32        0
             color[13]	        30        0
             color[14]	        28        0
             color[15]	        23        0
             color[16]	        29        0
             color[17]	        29        0
             color[18]	        33        0
             color[19]	        33        0
             color[20]	        22        0
             color[21]	        26        0
             color[22]	        31        0
             color[23]	        30        0
             color[24]	        16        0
             color[25]	        20        0
             color[26]	        15        0
             color[27]	        18        0
             color[28]	        29        0
             color[29]	        27        0
             color[30]	        30        0
             color[31]	        25        0
