assigned to cpu 0
memsize=1536 KB, type=read, cpuid=0
stop at 1000
total sum = 48321247641600
g_nread(bytes read) = 15730212864
elapsed = 0.82 sec ( 817913 usec )
CPU0: B/W = 18341.19 MB/s | CPU0: average = 3.33 ns
total llcache-events (accesses) : 245822531
total llcache-events (misses)   : 18417342
llcache-miss-rate               : 7.49%
LLC B/W  = 18344.03 MB/s
DRAM B/W = 1374.36 MB/s
pid : 6486
             flags	page-count       MB  symbolic-flags			long-symbolic-flags
0x0000000000000804	         1        0  __R________M______________________	referenced,mmap
0x000000000000086c	       395        1  __RU_lA____M______________________	referenced,uptodate,lru,active,mmap
0x0000000000005848	         5        0  ___U__A____Ma_b___________________	uptodate,active,mmap,anonymous,swapbacked
0x0000000000005868	       422        1  ___U_lA____Ma_b___________________	uptodate,lru,active,mmap,anonymous,swapbacked
0x000000000000586c	         1        0  __RU_lA____Ma_b___________________	referenced,uptodate,lru,active,mmap,anonymous,swapbacked
             total	       824        3

=============================================
Color Distribution for All Pages:
=============================================
             color[0]	        31        0
             color[1]	        23        0
             color[2]	        27        0
             color[3]	        32        0
             color[4]	        20        0
             color[5]	        22        0
             color[6]	        19        0
             color[7]	        25        0
             color[8]	        25        0
             color[9]	        21        0
             color[10]	        28        0
             color[11]	        20        0
             color[12]	        33        0
             color[13]	        29        0
             color[14]	        28        0
             color[15]	        23        0
             color[16]	        26        0
             color[17]	        25        0
             color[18]	        33        0
             color[19]	        34        0
             color[20]	        27        0
             color[21]	        20        0
             color[22]	        22        0
             color[23]	        24        0
             color[24]	        23        0
             color[25]	        19        0
             color[26]	        19        0
             color[27]	        19        0
             color[28]	        31        0
             color[29]	        26        0
             color[30]	        35        0
             color[31]	        35        0
