assigned to cpu 0
memsize=1536 KB, type=read, cpuid=0
stop at 1000
total sum = 48321247641600
g_nread(bytes read) = 15730212864
elapsed = 0.70 sec ( 696643 usec )
CPU0: B/W = 21533.98 MB/s | CPU0: average = 2.83 ns
total llcache-events (accesses) : 245807652
total llcache-events (misses)   : 910751
llcache-miss-rate               : 0.37%
LLC B/W  = 21536.01 MB/s
DRAM B/W = 79.79 MB/s
pid : 6731
             flags	page-count       MB  symbolic-flags			long-symbolic-flags
0x0000000000000800	         1        0  ___________M______________________	mmap
0x000000000000086c	       385        1  __RU_lA____M______________________	referenced,uptodate,lru,active,mmap
0x0000000000005848	         5        0  ___U__A____Ma_b___________________	uptodate,active,mmap,anonymous,swapbacked
0x0000000000005868	       422        1  ___U_lA____Ma_b___________________	uptodate,lru,active,mmap,anonymous,swapbacked
0x000000000000586c	         1        0  __RU_lA____Ma_b___________________	referenced,uptodate,lru,active,mmap,anonymous,swapbacked
             total	       814        3

=============================================
Color Distribution for All Pages:
=============================================
             color[0]	        33        0
             color[1]	        31        0
             color[2]	        27        0
             color[3]	        31        0
             color[4]	        28        0
             color[5]	        33        0
             color[6]	        13        0
             color[7]	        22        0
             color[8]	        22        0
             color[9]	        19        0
             color[10]	        19        0
             color[11]	        23        0
             color[12]	        36        0
             color[13]	        33        0
             color[14]	        25        0
             color[15]	        23        0
             color[16]	        27        0
             color[17]	        28        0
             color[18]	        39        0
             color[19]	        33        0
             color[20]	        28        0
             color[21]	        23        0
             color[22]	        23        0
             color[23]	        22        0
             color[24]	        15        0
             color[25]	        16        0
             color[26]	        11        0
             color[27]	        15        0
             color[28]	        26        0
             color[29]	        30        0
             color[30]	        30        0
             color[31]	        30        0
