assigned to cpu 0
memsize=1536 KB, type=read, cpuid=0
stop at 1000
total sum = 48321247641600
g_nread(bytes read) = 15730212864
elapsed = 0.70 sec ( 695458 usec )
CPU0: B/W = 21570.68 MB/s | CPU0: average = 2.83 ns
total llcache-events (accesses) : 245807626
total llcache-events (misses)   : 911799
llcache-miss-rate               : 0.37%
LLC B/W  = 21572.70 MB/s
DRAM B/W = 80.02 MB/s
pid : 7147
             flags	page-count       MB  symbolic-flags			long-symbolic-flags
0x0000000000000804	         1        0  __R________M______________________	referenced,mmap
0x000000000000086c	       383        1  __RU_lA____M______________________	referenced,uptodate,lru,active,mmap
0x0000000000005848	         5        0  ___U__A____Ma_b___________________	uptodate,active,mmap,anonymous,swapbacked
0x0000000000005868	       421        1  ___U_lA____Ma_b___________________	uptodate,lru,active,mmap,anonymous,swapbacked
0x000000000000586c	         1        0  __RU_lA____Ma_b___________________	referenced,uptodate,lru,active,mmap,anonymous,swapbacked
             total	       811        3

=============================================
Color Distribution for All Pages:
=============================================
             color[0]	        26        0
             color[1]	        21        0
             color[2]	        34        0
             color[3]	        34        0
             color[4]	        16        0
             color[5]	        18        0
             color[6]	        19        0
             color[7]	        22        0
             color[8]	        23        0
             color[9]	        23        0
             color[10]	        28        0
             color[11]	        30        0
             color[12]	        33        0
             color[13]	        33        0
             color[14]	        30        0
             color[15]	        21        0
             color[16]	        32        0
             color[17]	        31        0
             color[18]	        37        0
             color[19]	        34        0
             color[20]	        25        0
             color[21]	        26        0
             color[22]	        25        0
             color[23]	        25        0
             color[24]	        15        0
             color[25]	        17        0
             color[26]	        13        0
             color[27]	        15        0
             color[28]	        27        0
             color[29]	        26        0
             color[30]	        27        0
             color[31]	        25        0
