assigned to cpu 0
memsize=1536 KB, type=read, cpuid=0
stop at 1000
total sum = 48321247641600
g_nread(bytes read) = 15730212864
elapsed = 0.70 sec ( 704126 usec )
CPU0: B/W = 21305.13 MB/s | CPU0: average = 2.86 ns
total llcache-events (accesses) : 245817110
total llcache-events (misses)   : 1605464
llcache-miss-rate               : 0.65%
LLC B/W  = 21307.96 MB/s
DRAM B/W = 139.17 MB/s
pid : 6835
             flags	page-count       MB  symbolic-flags			long-symbolic-flags
0x0000000000000804	         1        0  __R________M______________________	referenced,mmap
0x000000000000086c	       397        1  __RU_lA____M______________________	referenced,uptodate,lru,active,mmap
0x0000000000005848	         5        0  ___U__A____Ma_b___________________	uptodate,active,mmap,anonymous,swapbacked
0x0000000000005868	       422        1  ___U_lA____Ma_b___________________	uptodate,lru,active,mmap,anonymous,swapbacked
0x000000000000586c	         1        0  __RU_lA____Ma_b___________________	referenced,uptodate,lru,active,mmap,anonymous,swapbacked
             total	       826        3

=============================================
Color Distribution for All Pages:
=============================================
             color[0]	        30        0
             color[1]	        26        0
             color[2]	        33        0
             color[3]	        37        0
             color[4]	        23        0
             color[5]	        20        0
             color[6]	        22        0
             color[7]	        23        0
             color[8]	        19        0
             color[9]	        21        0
             color[10]	        27        0
             color[11]	        25        0
             color[12]	        35        0
             color[13]	        30        0
             color[14]	        27        0
             color[15]	        27        0
             color[16]	        28        0
             color[17]	        30        0
             color[18]	        25        0
             color[19]	        24        0
             color[20]	        23        0
             color[21]	        25        0
             color[22]	        28        0
             color[23]	        29        0
             color[24]	        19        0
             color[25]	        23        0
             color[26]	        16        0
             color[27]	        18        0
             color[28]	        29        0
             color[29]	        28        0
             color[30]	        30        0
             color[31]	        26        0
