assigned to cpu 0
memsize=1536 KB, type=read, cpuid=0
stop at 1000
total sum = 48321247641600
g_nread(bytes read) = 15730212864
elapsed = 0.71 sec ( 705242 usec )
CPU0: B/W = 21271.42 MB/s | CPU0: average = 2.87 ns
total llcache-events (accesses) : 245807489
total llcache-events (misses)   : 2751635
llcache-miss-rate               : 1.12%
LLC B/W  = 21273.41 MB/s
DRAM B/W = 238.14 MB/s
pid : 5995
             flags	page-count       MB  symbolic-flags			long-symbolic-flags
0x0000000000000800	         1        0  ___________M______________________	mmap
0x000000000000086c	       383        1  __RU_lA____M______________________	referenced,uptodate,lru,active,mmap
0x0000000000005848	         5        0  ___U__A____Ma_b___________________	uptodate,active,mmap,anonymous,swapbacked
0x0000000000005868	       421        1  ___U_lA____Ma_b___________________	uptodate,lru,active,mmap,anonymous,swapbacked
0x000000000000586c	         1        0  __RU_lA____Ma_b___________________	referenced,uptodate,lru,active,mmap,anonymous,swapbacked
             total	       811        3

=============================================
Color Distribution for All Pages:
=============================================
             color[0]	        30        0
             color[1]	        28        0
             color[2]	        34        0
             color[3]	        33        0
             color[4]	        20        0
             color[5]	        26        0
             color[6]	        21        0
             color[7]	        25        0
             color[8]	        29        0
             color[9]	        27        0
             color[10]	        22        0
             color[11]	        24        0
             color[12]	        30        0
             color[13]	        33        0
             color[14]	        33        0
             color[15]	        25        0
             color[16]	        25        0
             color[17]	        24        0
             color[18]	        28        0
             color[19]	        28        0
             color[20]	        22        0
             color[21]	        23        0
             color[22]	        30        0
             color[23]	        28        0
             color[24]	        16        0
             color[25]	        19        0
             color[26]	        13        0
             color[27]	        16        0
             color[28]	        25        0
             color[29]	        25        0
             color[30]	        26        0
             color[31]	        23        0
