assigned to cpu 0
memsize=1536 KB, type=read, cpuid=0
stop at 1000
total sum = 48321247641600
g_nread(bytes read) = 15730212864
elapsed = 0.70 sec ( 704007 usec )
CPU0: B/W = 21308.74 MB/s | CPU0: average = 2.86 ns
total llcache-events (accesses) : 245807113
total llcache-events (misses)   : 1714211
llcache-miss-rate               : 0.70%
LLC B/W  = 21310.69 MB/s
DRAM B/W = 148.62 MB/s
pid : 6730
             flags	page-count       MB  symbolic-flags			long-symbolic-flags
0x0000000000000804	         1        0  __R________M______________________	referenced,mmap
0x000000000000086c	       376        1  __RU_lA____M______________________	referenced,uptodate,lru,active,mmap
0x0000000000005848	         5        0  ___U__A____Ma_b___________________	uptodate,active,mmap,anonymous,swapbacked
0x0000000000005868	       422        1  ___U_lA____Ma_b___________________	uptodate,lru,active,mmap,anonymous,swapbacked
0x000000000000586c	         1        0  __RU_lA____Ma_b___________________	referenced,uptodate,lru,active,mmap,anonymous,swapbacked
             total	       805        3

=============================================
Color Distribution for All Pages:
=============================================
             color[0]	        26        0
             color[1]	        28        0
             color[2]	        27        0
             color[3]	        27        0
             color[4]	        25        0
             color[5]	        26        0
             color[6]	        19        0
             color[7]	        22        0
             color[8]	        22        0
             color[9]	        24        0
             color[10]	        21        0
             color[11]	        22        0
             color[12]	        31        0
             color[13]	        31        0
             color[14]	        20        0
             color[15]	        21        0
             color[16]	        30        0
             color[17]	        31        0
             color[18]	        38        0
             color[19]	        35        0
             color[20]	        22        0
             color[21]	        23        0
             color[22]	        29        0
             color[23]	        29        0
             color[24]	        15        0
             color[25]	        22        0
             color[26]	        15        0
             color[27]	        18        0
             color[28]	        24        0
             color[29]	        28        0
             color[30]	        31        0
             color[31]	        23        0
