assigned to cpu 0
memsize=1536 KB, type=read, cpuid=0
stop at 1000
total sum = 48321247641600
g_nread(bytes read) = 15730212864
elapsed = 0.70 sec ( 704056 usec )
CPU0: B/W = 21307.25 MB/s | CPU0: average = 2.86 ns
total llcache-events (accesses) : 245807606
total llcache-events (misses)   : 1860691
llcache-miss-rate               : 0.76%
LLC B/W  = 21309.25 MB/s
DRAM B/W = 161.30 MB/s
pid : 6555
             flags	page-count       MB  symbolic-flags			long-symbolic-flags
0x0000000000000800	         1        0  ___________M______________________	mmap
0x000000000000086c	       395        1  __RU_lA____M______________________	referenced,uptodate,lru,active,mmap
0x0000000000005848	         5        0  ___U__A____Ma_b___________________	uptodate,active,mmap,anonymous,swapbacked
0x0000000000005868	       422        1  ___U_lA____Ma_b___________________	uptodate,lru,active,mmap,anonymous,swapbacked
0x000000000000586c	         1        0  __RU_lA____Ma_b___________________	referenced,uptodate,lru,active,mmap,anonymous,swapbacked
             total	       824        3

=============================================
Color Distribution for All Pages:
=============================================
             color[0]	        25        0
             color[1]	        26        0
             color[2]	        29        0
             color[3]	        31        0
             color[4]	        21        0
             color[5]	        29        0
             color[6]	        20        0
             color[7]	        20        0
             color[8]	        25        0
             color[9]	        27        0
             color[10]	        28        0
             color[11]	        27        0
             color[12]	        35        0
             color[13]	        30        0
             color[14]	        28        0
             color[15]	        24        0
             color[16]	        33        0
             color[17]	        29        0
             color[18]	        24        0
             color[19]	        31        0
             color[20]	        25        0
             color[21]	        26        0
             color[22]	        29        0
             color[23]	        26        0
             color[24]	        19        0
             color[25]	        21        0
             color[26]	        13        0
             color[27]	        15        0
             color[28]	        26        0
             color[29]	        31        0
             color[30]	        26        0
             color[31]	        25        0
