assigned to cpu 0
memsize=2048 KB, type=read, cpuid=0
stop at 1000
total sum = 85905314152448
g_nread(bytes read) = 20973617152
elapsed = 0.92 sec ( 922902 usec )
CPU0: B/W = 21672.94 MB/s | CPU0: average = 2.82 ns
total llcache-events (accesses) : 327736015
total llcache-events (misses)   : 665064
llcache-miss-rate               : 0.20%
LLC B/W  = 21674.48 MB/s
DRAM B/W = 43.98 MB/s
pid : 7361
             flags	page-count       MB  symbolic-flags			long-symbolic-flags
0x0000000000000800	         1        0  ___________M______________________	mmap
0x000000000000086c	       386        1  __RU_lA____M______________________	referenced,uptodate,lru,active,mmap
0x0000000000005848	         5        0  ___U__A____Ma_b___________________	uptodate,active,mmap,anonymous,swapbacked
0x0000000000005868	       550        2  ___U_lA____Ma_b___________________	uptodate,lru,active,mmap,anonymous,swapbacked
0x000000000000586c	         1        0  __RU_lA____Ma_b___________________	referenced,uptodate,lru,active,mmap,anonymous,swapbacked
             total	       943        3

=============================================
Color Distribution for All Pages:
=============================================
             color[0]	        32        0
             color[1]	        32        0
             color[2]	        32        0
             color[3]	        34        0
             color[4]	        24        0
             color[5]	        28        0
             color[6]	        33        0
             color[7]	        33        0
             color[8]	        27        0
             color[9]	        30        0
             color[10]	        28        0
             color[11]	        30        0
             color[12]	        36        0
             color[13]	        35        0
             color[14]	        36        0
             color[15]	        32        0
             color[16]	        36        0
             color[17]	        34        0
             color[18]	        30        0
             color[19]	        29        0
             color[20]	        29        0
             color[21]	        28        0
             color[22]	        35        0
             color[23]	        33        0
             color[24]	        20        0
             color[25]	        23        0
             color[26]	        18        0
             color[27]	        20        0
             color[28]	        26        0
             color[29]	        28        0
             color[30]	        28        0
             color[31]	        24        0
