assigned to cpu 0
memsize=2048 KB, type=read, cpuid=0
stop at 1000
total sum = 85905314152448
g_nread(bytes read) = 20973617152
elapsed = 1.00 sec ( 998479 usec )
CPU0: B/W = 20032.47 MB/s | CPU0: average = 3.05 ns
total llcache-events (accesses) : 327742848
total llcache-events (misses)   : 10811858
llcache-miss-rate               : 3.30%
LLC B/W  = 20034.31 MB/s
DRAM B/W = 660.91 MB/s
pid : 7240
             flags	page-count       MB  symbolic-flags			long-symbolic-flags
0x0000000000000800	         1        0  ___________M______________________	mmap
0x000000000000086c	       371        1  __RU_lA____M______________________	referenced,uptodate,lru,active,mmap
0x0000000000005848	         5        0  ___U__A____Ma_b___________________	uptodate,active,mmap,anonymous,swapbacked
0x0000000000005868	       550        2  ___U_lA____Ma_b___________________	uptodate,lru,active,mmap,anonymous,swapbacked
0x000000000000586c	         1        0  __RU_lA____Ma_b___________________	referenced,uptodate,lru,active,mmap,anonymous,swapbacked
             total	       928        3

=============================================
Color Distribution for All Pages:
=============================================
             color[0]	        31        0
             color[1]	        26        0
             color[2]	        31        0
             color[3]	        35        0
             color[4]	        21        0
             color[5]	        28        0
             color[6]	        25        0
             color[7]	        28        0
             color[8]	        27        0
             color[9]	        27        0
             color[10]	        28        0
             color[11]	        30        0
             color[12]	        37        0
             color[13]	        35        0
             color[14]	        36        0
             color[15]	        32        0
             color[16]	        28        0
             color[17]	        28        0
             color[18]	        33        0
             color[19]	        31        0
             color[20]	        32        0
             color[21]	        29        0
             color[22]	        26        0
             color[23]	        27        0
             color[24]	        20        0
             color[25]	        22        0
             color[26]	        22        0
             color[27]	        24        0
             color[28]	        34        0
             color[29]	        30        0
             color[30]	        35        0
             color[31]	        30        0
