assigned to cpu 0
memsize=2048 KB, type=read, cpuid=0
stop at 1000
total sum = 85905314152448
g_nread(bytes read) = 20973617152
elapsed = 0.95 sec ( 947468 usec )
CPU0: B/W = 21111.00 MB/s | CPU0: average = 2.89 ns
total llcache-events (accesses) : 327750102
total llcache-events (misses)   : 3549185
llcache-miss-rate               : 1.08%
LLC B/W  = 21113.41 MB/s
DRAM B/W = 228.64 MB/s
pid : 7315
             flags	page-count       MB  symbolic-flags			long-symbolic-flags
0x0000000000000804	         1        0  __R________M______________________	referenced,mmap
0x000000000000086c	       397        1  __RU_lA____M______________________	referenced,uptodate,lru,active,mmap
0x0000000000005848	         5        0  ___U__A____Ma_b___________________	uptodate,active,mmap,anonymous,swapbacked
0x0000000000005868	       551        2  ___U_lA____Ma_b___________________	uptodate,lru,active,mmap,anonymous,swapbacked
0x000000000000586c	         1        0  __RU_lA____Ma_b___________________	referenced,uptodate,lru,active,mmap,anonymous,swapbacked
             total	       955        3

=============================================
Color Distribution for All Pages:
=============================================
             color[0]	        38        0
             color[1]	        31        0
             color[2]	        37        0
             color[3]	        36        0
             color[4]	        26        0
             color[5]	        26        0
             color[6]	        26        0
             color[7]	        27        0
             color[8]	        27        0
             color[9]	        27        0
             color[10]	        32        0
             color[11]	        30        0
             color[12]	        35        0
             color[13]	        33        0
             color[14]	        33        0
             color[15]	        26        0
             color[16]	        35        0
             color[17]	        32        0
             color[18]	        37        0
             color[19]	        31        0
             color[20]	        25        0
             color[21]	        23        0
             color[22]	        30        0
             color[23]	        26        0
             color[24]	        22        0
             color[25]	        25        0
             color[26]	        20        0
             color[27]	        24        0
             color[28]	        32        0
             color[29]	        32        0
             color[30]	        37        0
             color[31]	        34        0
