assigned to cpu 0
memsize=2048 KB, type=read, cpuid=0
stop at 1000
total sum = 85905314152448
g_nread(bytes read) = 20973617152
elapsed = 0.94 sec ( 939664 usec )
CPU0: B/W = 21286.33 MB/s | CPU0: average = 2.87 ns
total llcache-events (accesses) : 327737856
total llcache-events (misses)   : 2209473
llcache-miss-rate               : 0.67%
LLC B/W  = 21287.96 MB/s
DRAM B/W = 143.51 MB/s
pid : 8060
             flags	page-count       MB  symbolic-flags			long-symbolic-flags
0x0000000000000804	         1        0  __R________M______________________	referenced,mmap
0x000000000000086c	       381        1  __RU_lA____M______________________	referenced,uptodate,lru,active,mmap
0x0000000000005848	         5        0  ___U__A____Ma_b___________________	uptodate,active,mmap,anonymous,swapbacked
0x0000000000005868	       549        2  ___U_lA____Ma_b___________________	uptodate,lru,active,mmap,anonymous,swapbacked
0x000000000000586c	         1        0  __RU_lA____Ma_b___________________	referenced,uptodate,lru,active,mmap,anonymous,swapbacked
             total	       937        3

=============================================
Color Distribution for All Pages:
=============================================
             color[0]	        32        0
             color[1]	        26        0
             color[2]	        37        0
             color[3]	        40        0
             color[4]	        25        0
             color[5]	        24        0
             color[6]	        30        0
             color[7]	        28        0
             color[8]	        27        0
             color[9]	        28        0
             color[10]	        31        0
             color[11]	        33        0
             color[12]	        28        0
             color[13]	        33        0
             color[14]	        36        0
             color[15]	        29        0
             color[16]	        34        0
             color[17]	        30        0
             color[18]	        45        0
             color[19]	        41        0
             color[20]	        23        0
             color[21]	        26        0
             color[22]	        28        0
             color[23]	        26        0
             color[24]	        16        0
             color[25]	        23        0
             color[26]	        20        0
             color[27]	        20        0
             color[28]	        29        0
             color[29]	        29        0
             color[30]	        30        0
             color[31]	        30        0
