assigned to cpu 0
memsize=2048 KB, type=read, cpuid=0
stop at 1000
total sum = 85905314152448
g_nread(bytes read) = 20973617152
elapsed = 0.97 sec ( 965869 usec )
CPU0: B/W = 20708.81 MB/s | CPU0: average = 2.95 ns
total llcache-events (accesses) : 327740478
total llcache-events (misses)   : 6273333
llcache-miss-rate               : 1.91%
LLC B/W  = 20710.56 MB/s
DRAM B/W = 396.42 MB/s
pid : 7492
             flags	page-count       MB  symbolic-flags			long-symbolic-flags
0x0000000000000804	         1        0  __R________M______________________	referenced,mmap
0x000000000000086c	       385        1  __RU_lA____M______________________	referenced,uptodate,lru,active,mmap
0x0000000000005848	         5        0  ___U__A____Ma_b___________________	uptodate,active,mmap,anonymous,swapbacked
0x0000000000005868	       549        2  ___U_lA____Ma_b___________________	uptodate,lru,active,mmap,anonymous,swapbacked
0x000000000000586c	         1        0  __RU_lA____Ma_b___________________	referenced,uptodate,lru,active,mmap,anonymous,swapbacked
             total	       941        3

=============================================
Color Distribution for All Pages:
=============================================
             color[0]	        36        0
             color[1]	        29        0
             color[2]	        31        0
             color[3]	        29        0
             color[4]	        26        0
             color[5]	        30        0
             color[6]	        25        0
             color[7]	        28        0
             color[8]	        25        0
             color[9]	        24        0
             color[10]	        33        0
             color[11]	        30        0
             color[12]	        36        0
             color[13]	        39        0
             color[14]	        34        0
             color[15]	        28        0
             color[16]	        32        0
             color[17]	        27        0
             color[18]	        42        0
             color[19]	        34        0
             color[20]	        25        0
             color[21]	        22        0
             color[22]	        26        0
             color[23]	        28        0
             color[24]	        20        0
             color[25]	        21        0
             color[26]	        20        0
             color[27]	        20        0
             color[28]	        34        0
             color[29]	        33        0
             color[30]	        39        0
             color[31]	        35        0
