assigned to cpu 0
memsize=2048 KB, type=read, cpuid=0
stop at 1000
total sum = 85905314152448
g_nread(bytes read) = 20973617152
elapsed = 0.97 sec ( 970352 usec )
CPU0: B/W = 20613.14 MB/s | CPU0: average = 2.96 ns
total llcache-events (accesses) : 327736350
total llcache-events (misses)   : 7293406
llcache-miss-rate               : 2.23%
LLC B/W  = 20614.62 MB/s
DRAM B/W = 458.76 MB/s
pid : 7208
             flags	page-count       MB  symbolic-flags			long-symbolic-flags
0x0000000000000804	         1        0  __R________M______________________	referenced,mmap
0x000000000000086c	       372        1  __RU_lA____M______________________	referenced,uptodate,lru,active,mmap
0x0000000000005848	         5        0  ___U__A____Ma_b___________________	uptodate,active,mmap,anonymous,swapbacked
0x0000000000005868	       550        2  ___U_lA____Ma_b___________________	uptodate,lru,active,mmap,anonymous,swapbacked
0x000000000000586c	         1        0  __RU_lA____Ma_b___________________	referenced,uptodate,lru,active,mmap,anonymous,swapbacked
             total	       929        3

=============================================
Color Distribution for All Pages:
=============================================
             color[0]	        28        0
             color[1]	        28        0
             color[2]	        35        0
             color[3]	        35        0
             color[4]	        21        0
             color[5]	        21        0
             color[6]	        29        0
             color[7]	        30        0
             color[8]	        21        0
             color[9]	        24        0
             color[10]	        36        0
             color[11]	        32        0
             color[12]	        34        0
             color[13]	        36        0
             color[14]	        29        0
             color[15]	        27        0
             color[16]	        30        0
             color[17]	        32        0
             color[18]	        37        0
             color[19]	        37        0
             color[20]	        29        0
             color[21]	        30        0
             color[22]	        35        0
             color[23]	        36        0
             color[24]	        20        0
             color[25]	        23        0
             color[26]	        17        0
             color[27]	        20        0
             color[28]	        32        0
             color[29]	        33        0
             color[30]	        29        0
             color[31]	        23        0
