assigned to cpu 0
memsize=2048 KB, type=read, cpuid=0
stop at 1000
total sum = 85905314152448
g_nread(bytes read) = 20973617152
elapsed = 0.93 sec ( 929113 usec )
CPU0: B/W = 21528.06 MB/s | CPU0: average = 2.84 ns
total llcache-events (accesses) : 327735929
total llcache-events (misses)   : 1259499
llcache-miss-rate               : 0.38%
LLC B/W  = 21529.58 MB/s
DRAM B/W = 82.74 MB/s
pid : 7314
             flags	page-count       MB  symbolic-flags			long-symbolic-flags
0x0000000000000800	         1        0  ___________M______________________	mmap
0x000000000000086c	       385        1  __RU_lA____M______________________	referenced,uptodate,lru,active,mmap
0x0000000000005848	         5        0  ___U__A____Ma_b___________________	uptodate,active,mmap,anonymous,swapbacked
0x0000000000005868	       550        2  ___U_lA____Ma_b___________________	uptodate,lru,active,mmap,anonymous,swapbacked
0x000000000000586c	         1        0  __RU_lA____Ma_b___________________	referenced,uptodate,lru,active,mmap,anonymous,swapbacked
             total	       942        3

=============================================
Color Distribution for All Pages:
=============================================
             color[0]	        31        0
             color[1]	        29        0
             color[2]	        35        0
             color[3]	        36        0
             color[4]	        29        0
             color[5]	        28        0
             color[6]	        30        0
             color[7]	        29        0
             color[8]	        24        0
             color[9]	        29        0
             color[10]	        28        0
             color[11]	        30        0
             color[12]	        35        0
             color[13]	        33        0
             color[14]	        31        0
             color[15]	        24        0
             color[16]	        35        0
             color[17]	        34        0
             color[18]	        43        0
             color[19]	        36        0
             color[20]	        30        0
             color[21]	        33        0
             color[22]	        26        0
             color[23]	        19        0
             color[24]	        19        0
             color[25]	        18        0
             color[26]	        16        0
             color[27]	        17        0
             color[28]	        40        0
             color[29]	        34        0
             color[30]	        28        0
             color[31]	        33        0
