assigned to cpu 0
memsize=2048 KB, type=read, cpuid=0
stop at 1000
total sum = 85905314152448
g_nread(bytes read) = 20973617152
elapsed = 0.92 sec ( 920527 usec )
CPU0: B/W = 21728.86 MB/s | CPU0: average = 2.81 ns
total llcache-events (accesses) : 327736017
total llcache-events (misses)   : 298669
llcache-miss-rate               : 0.09%
LLC B/W  = 21730.40 MB/s
DRAM B/W = 19.80 MB/s
pid : 7275
             flags	page-count       MB  symbolic-flags			long-symbolic-flags
0x0000000000000804	         1        0  __R________M______________________	referenced,mmap
0x000000000000086c	       375        1  __RU_lA____M______________________	referenced,uptodate,lru,active,mmap
0x0000000000005848	         5        0  ___U__A____Ma_b___________________	uptodate,active,mmap,anonymous,swapbacked
0x0000000000005868	       550        2  ___U_lA____Ma_b___________________	uptodate,lru,active,mmap,anonymous,swapbacked
0x000000000000586c	         1        0  __RU_lA____Ma_b___________________	referenced,uptodate,lru,active,mmap,anonymous,swapbacked
             total	       932        3

=============================================
Color Distribution for All Pages:
=============================================
             color[0]	        28        0
             color[1]	        24        0
             color[2]	        36        0
             color[3]	        38        0
             color[4]	        23        0
             color[5]	        26        0
             color[6]	        26        0
             color[7]	        29        0
             color[8]	        24        0
             color[9]	        26        0
             color[10]	        34        0
             color[11]	        35        0
             color[12]	        36        0
             color[13]	        33        0
             color[14]	        28        0
             color[15]	        26        0
             color[16]	        31        0
             color[17]	        31        0
             color[18]	        35        0
             color[19]	        35        0
             color[20]	        26        0
             color[21]	        33        0
             color[22]	        31        0
             color[23]	        30        0
             color[24]	        23        0
             color[25]	        25        0
             color[26]	        18        0
             color[27]	        24        0
             color[28]	        31        0
             color[29]	        30        0
             color[30]	        31        0
             color[31]	        26        0
