assigned to cpu 0
memsize=2048 KB, type=read, cpuid=0
stop at 1000
total sum = 85905314152448
g_nread(bytes read) = 20973617152
elapsed = 0.93 sec ( 925198 usec )
CPU0: B/W = 21619.16 MB/s | CPU0: average = 2.82 ns
total llcache-events (accesses) : 327745418
total llcache-events (misses)   : 853362
llcache-miss-rate               : 0.26%
LLC B/W  = 21621.31 MB/s
DRAM B/W = 56.30 MB/s
pid : 7413
             flags	page-count       MB  symbolic-flags			long-symbolic-flags
0x0000000000000804	         1        0  __R________M______________________	referenced,mmap
0x000000000000086c	       371        1  __RU_lA____M______________________	referenced,uptodate,lru,active,mmap
0x0000000000005848	         5        0  ___U__A____Ma_b___________________	uptodate,active,mmap,anonymous,swapbacked
0x0000000000005868	       550        2  ___U_lA____Ma_b___________________	uptodate,lru,active,mmap,anonymous,swapbacked
0x000000000000586c	         1        0  __RU_lA____Ma_b___________________	referenced,uptodate,lru,active,mmap,anonymous,swapbacked
             total	       928        3

=============================================
Color Distribution for All Pages:
=============================================
             color[0]	        28        0
             color[1]	        28        0
             color[2]	        38        0
             color[3]	        38        0
             color[4]	        22        0
             color[5]	        23        0
             color[6]	        29        0
             color[7]	        29        0
             color[8]	        29        0
             color[9]	        27        0
             color[10]	        27        0
             color[11]	        30        0
             color[12]	        30        0
             color[13]	        28        0
             color[14]	        36        0
             color[15]	        34        0
             color[16]	        33        0
             color[17]	        35        0
             color[18]	        32        0
             color[19]	        33        0
             color[20]	        31        0
             color[21]	        34        0
             color[22]	        27        0
             color[23]	        28        0
             color[24]	        19        0
             color[25]	        20        0
             color[26]	        17        0
             color[27]	        20        0
             color[28]	        31        0
             color[29]	        31        0
             color[30]	        33        0
             color[31]	        28        0
