assigned to cpu 0
memsize=2048 KB, type=read, cpuid=0
stop at 1000
total sum = 85905314152448
g_nread(bytes read) = 20973617152
elapsed = 0.98 sec ( 979056 usec )
CPU0: B/W = 20429.88 MB/s | CPU0: average = 2.99 ns
total llcache-events (accesses) : 327735995
total llcache-events (misses)   : 8114528
llcache-miss-rate               : 2.48%
LLC B/W  = 20431.33 MB/s
DRAM B/W = 505.87 MB/s
pid : 8219
             flags	page-count       MB  symbolic-flags			long-symbolic-flags
0x0000000000000804	         1        0  __R________M______________________	referenced,mmap
0x000000000000086c	       386        1  __RU_lA____M______________________	referenced,uptodate,lru,active,mmap
0x0000000000005848	         5        0  ___U__A____Ma_b___________________	uptodate,active,mmap,anonymous,swapbacked
0x0000000000005868	       550        2  ___U_lA____Ma_b___________________	uptodate,lru,active,mmap,anonymous,swapbacked
0x000000000000586c	         1        0  __RU_lA____Ma_b___________________	referenced,uptodate,lru,active,mmap,anonymous,swapbacked
             total	       943        3

=============================================
Color Distribution for All Pages:
=============================================
             color[0]	        34        0
             color[1]	        27        0
             color[2]	        34        0
             color[3]	        30        0
             color[4]	        25        0
             color[5]	        25        0
             color[6]	        19        0
             color[7]	        21        0
             color[8]	        34        0
             color[9]	        31        0
             color[10]	        26        0
             color[11]	        30        0
             color[12]	        33        0
             color[13]	        36        0
             color[14]	        33        0
             color[15]	        30        0
             color[16]	        41        0
             color[17]	        38        0
             color[18]	        40        0
             color[19]	        34        0
             color[20]	        30        0
             color[21]	        30        0
             color[22]	        29        0
             color[23]	        22        0
             color[24]	        19        0
             color[25]	        21        0
             color[26]	        24        0
             color[27]	        27        0
             color[28]	        28        0
             color[29]	        26        0
             color[30]	        33        0
             color[31]	        33        0
