assigned to cpu 0
memsize=2560 KB, type=read, cpuid=0
stop at 1000
total sum = 134227872645120
g_nread(bytes read) = 26217021440
elapsed = 1.22 sec ( 1223139 usec )
CPU0: B/W = 20441.26 MB/s | CPU0: average = 2.99 ns
total llcache-events (accesses) : 409664510
total llcache-events (misses)   : 9457566
llcache-miss-rate               : 2.31%
LLC B/W  = 20442.43 MB/s
DRAM B/W = 471.94 MB/s
pid : 8289
             flags	page-count       MB  symbolic-flags			long-symbolic-flags
0x0000000000000800	         1        0  ___________M______________________	mmap
0x000000000000086c	       371        1  __RU_lA____M______________________	referenced,uptodate,lru,active,mmap
0x0000000000005848	         5        0  ___U__A____Ma_b___________________	uptodate,active,mmap,anonymous,swapbacked
0x0000000000005868	       678        2  ___U_lA____Ma_b___________________	uptodate,lru,active,mmap,anonymous,swapbacked
0x000000000000586c	         1        0  __RU_lA____Ma_b___________________	referenced,uptodate,lru,active,mmap,anonymous,swapbacked
             total	      1056        4

=============================================
Color Distribution for All Pages:
=============================================
             color[0]	        35        0
             color[1]	        30        0
             color[2]	        32        0
             color[3]	        38        0
             color[4]	        23        0
             color[5]	        23        0
             color[6]	        29        0
             color[7]	        34        0
             color[8]	        40        0
             color[9]	        39        0
             color[10]	        35        0
             color[11]	        34        0
             color[12]	        41        0
             color[13]	        37        0
             color[14]	        32        0
             color[15]	        28        0
             color[16]	        36        0
             color[17]	        42        0
             color[18]	        43        0
             color[19]	        37        0
             color[20]	        31        0
             color[21]	        33        0
             color[22]	        38        0
             color[23]	        27        0
             color[24]	        27        0
             color[25]	        33        0
             color[26]	        26        0
             color[27]	        25        0
             color[28]	        30        0
             color[29]	        30        0
             color[30]	        35        0
             color[31]	        33        0
