assigned to cpu 0
memsize=2560 KB, type=read, cpuid=0
stop at 1000
total sum = 134227872645120
g_nread(bytes read) = 26217021440
elapsed = 1.27 sec ( 1274990 usec )
CPU0: B/W = 19609.96 MB/s | CPU0: average = 3.11 ns
total llcache-events (accesses) : 409664734
total llcache-events (misses)   : 17845525
llcache-miss-rate               : 4.36%
LLC B/W  = 19611.10 MB/s
DRAM B/W = 854.28 MB/s
pid : 8323
             flags	page-count       MB  symbolic-flags			long-symbolic-flags
0x0000000000000804	         1        0  __R________M______________________	referenced,mmap
0x000000000000086c	       375        1  __RU_lA____M______________________	referenced,uptodate,lru,active,mmap
0x0000000000005848	         5        0  ___U__A____Ma_b___________________	uptodate,active,mmap,anonymous,swapbacked
0x0000000000005868	       678        2  ___U_lA____Ma_b___________________	uptodate,lru,active,mmap,anonymous,swapbacked
0x000000000000586c	         1        0  __RU_lA____Ma_b___________________	referenced,uptodate,lru,active,mmap,anonymous,swapbacked
             total	      1060        4

=============================================
Color Distribution for All Pages:
=============================================
             color[0]	        33        0
             color[1]	        31        0
             color[2]	        36        0
             color[3]	        42        0
             color[4]	        32        0
             color[5]	        30        0
             color[6]	        36        0
             color[7]	        37        0
             color[8]	        34        0
             color[9]	        35        0
             color[10]	        28        0
             color[11]	        28        0
             color[12]	        33        0
             color[13]	        35        0
             color[14]	        34        0
             color[15]	        28        0
             color[16]	        38        0
             color[17]	        40        0
             color[18]	        42        0
             color[19]	        42        0
             color[20]	        33        0
             color[21]	        37        0
             color[22]	        26        0
             color[23]	        23        0
             color[24]	        30        0
             color[25]	        31        0
             color[26]	        29        0
             color[27]	        32        0
             color[28]	        35        0
             color[29]	        32        0
             color[30]	        32        0
             color[31]	        26        0
