assigned to cpu 0
memsize=2560 KB, type=read, cpuid=0
stop at 1000
total sum = 134227872645120
g_nread(bytes read) = 26217021440
elapsed = 1.23 sec ( 1231170 usec )
CPU0: B/W = 20307.92 MB/s | CPU0: average = 3.01 ns
total llcache-events (accesses) : 409663705
total llcache-events (misses)   : 10856353
llcache-miss-rate               : 2.65%
LLC B/W  = 20309.04 MB/s
DRAM B/W = 538.20 MB/s
pid : 8920
             flags	page-count       MB  symbolic-flags			long-symbolic-flags
0x0000000000000804	         1        0  __R________M______________________	referenced,mmap
0x000000000000086c	       383        1  __RU_lA____M______________________	referenced,uptodate,lru,active,mmap
0x0000000000005848	         5        0  ___U__A____Ma_b___________________	uptodate,active,mmap,anonymous,swapbacked
0x0000000000005868	       679        2  ___U_lA____Ma_b___________________	uptodate,lru,active,mmap,anonymous,swapbacked
0x000000000000586c	         1        0  __RU_lA____Ma_b___________________	referenced,uptodate,lru,active,mmap,anonymous,swapbacked
             total	      1069        4

=============================================
Color Distribution for All Pages:
=============================================
             color[0]	        32        0
             color[1]	        31        0
             color[2]	        38        0
             color[3]	        37        0
             color[4]	        24        0
             color[5]	        25        0
             color[6]	        35        0
             color[7]	        34        0
             color[8]	        28        0
             color[9]	        34        0
             color[10]	        31        0
             color[11]	        26        0
             color[12]	        31        0
             color[13]	        35        0
             color[14]	        34        0
             color[15]	        26        0
             color[16]	        43        0
             color[17]	        42        0
             color[18]	        40        0
             color[19]	        36        0
             color[20]	        36        0
             color[21]	        35        0
             color[22]	        33        0
             color[23]	        27        0
             color[24]	        32        0
             color[25]	        30        0
             color[26]	        27        0
             color[27]	        33        0
             color[28]	        41        0
             color[29]	        44        0
             color[30]	        33        0
             color[31]	        36        0
