assigned to cpu 0
memsize=2560 KB, type=read, cpuid=0
stop at 1000
total sum = 134227872645120
g_nread(bytes read) = 26217021440
elapsed = 1.60 sec ( 1598275 usec )
CPU0: B/W = 15643.43 MB/s | CPU0: average = 3.90 ns
total llcache-events (accesses) : 409664966
total llcache-events (misses)   : 68432035
llcache-miss-rate               : 16.70%
LLC B/W  = 15644.34 MB/s
DRAM B/W = 2613.29 MB/s
pid : 8822
             flags	page-count       MB  symbolic-flags			long-symbolic-flags
0x0000000000000804	         1        0  __R________M______________________	referenced,mmap
0x000000000000086c	       376        1  __RU_lA____M______________________	referenced,uptodate,lru,active,mmap
0x0000000000005848	         5        0  ___U__A____Ma_b___________________	uptodate,active,mmap,anonymous,swapbacked
0x0000000000005868	       677        2  ___U_lA____Ma_b___________________	uptodate,lru,active,mmap,anonymous,swapbacked
0x000000000000586c	         1        0  __RU_lA____Ma_b___________________	referenced,uptodate,lru,active,mmap,anonymous,swapbacked
             total	      1060        4

=============================================
Color Distribution for All Pages:
=============================================
             color[0]	        46        0
             color[1]	        35        0
             color[2]	        27        0
             color[3]	        37        0
             color[4]	        37        0
             color[5]	        33        0
             color[6]	        38        0
             color[7]	        40        0
             color[8]	        43        0
             color[9]	        31        0
             color[10]	        34        0
             color[11]	        27        0
             color[12]	        34        0
             color[13]	        38        0
             color[14]	        31        0
             color[15]	        28        0
             color[16]	        30        0
             color[17]	        29        0
             color[18]	        48        0
             color[19]	        33        0
             color[20]	        33        0
             color[21]	        34        0
             color[22]	        35        0
             color[23]	        27        0
             color[24]	        25        0
             color[25]	        32        0
             color[26]	        27        0
             color[27]	        30        0
             color[28]	        32        0
             color[29]	        25        0
             color[30]	        32        0
             color[31]	        29        0
