assigned to cpu 0
memsize=2560 KB, type=read, cpuid=0
stop at 1000
total sum = 134227872645120
g_nread(bytes read) = 26217021440
elapsed = 1.21 sec ( 1210022 usec )
CPU0: B/W = 20662.85 MB/s | CPU0: average = 2.95 ns
total llcache-events (accesses) : 409664309
total llcache-events (misses)   : 7778948
llcache-miss-rate               : 1.90%
LLC B/W  = 20664.03 MB/s
DRAM B/W = 392.38 MB/s
pid : 9534
             flags	page-count       MB  symbolic-flags			long-symbolic-flags
0x0000000000000804	         1        0  __R________M______________________	referenced,mmap
0x000000000000086c	       385        1  __RU_lA____M______________________	referenced,uptodate,lru,active,mmap
0x0000000000005848	         5        0  ___U__A____Ma_b___________________	uptodate,active,mmap,anonymous,swapbacked
0x0000000000005868	       677        2  ___U_lA____Ma_b___________________	uptodate,lru,active,mmap,anonymous,swapbacked
0x000000000000586c	         1        0  __RU_lA____Ma_b___________________	referenced,uptodate,lru,active,mmap,anonymous,swapbacked
             total	      1069        4

=============================================
Color Distribution for All Pages:
=============================================
             color[0]	        29        0
             color[1]	        26        0
             color[2]	        41        0
             color[3]	        37        0
             color[4]	        30        0
             color[5]	        32        0
             color[6]	        35        0
             color[7]	        38        0
             color[8]	        34        0
             color[9]	        27        0
             color[10]	        27        0
             color[11]	        32        0
             color[12]	        37        0
             color[13]	        40        0
             color[14]	        32        0
             color[15]	        30        0
             color[16]	        40        0
             color[17]	        38        0
             color[18]	        38        0
             color[19]	        35        0
             color[20]	        41        0
             color[21]	        36        0
             color[22]	        32        0
             color[23]	        31        0
             color[24]	        33        0
             color[25]	        32        0
             color[26]	        25        0
             color[27]	        27        0
             color[28]	        39        0
             color[29]	        36        0
             color[30]	        31        0
             color[31]	        28        0
