assigned to cpu 0
memsize=2560 KB, type=read, cpuid=0
stop at 1000
total sum = 134227872645120
g_nread(bytes read) = 26217021440
elapsed = 1.20 sec ( 1199639 usec )
CPU0: B/W = 20841.69 MB/s | CPU0: average = 2.93 ns
total llcache-events (accesses) : 409673915
total llcache-events (misses)   : 5353194
llcache-miss-rate               : 1.31%
LLC B/W  = 20843.36 MB/s
DRAM B/W = 272.36 MB/s
pid : 9393
             flags	page-count       MB  symbolic-flags			long-symbolic-flags
0x0000000000000804	         1        0  __R________M______________________	referenced,mmap
0x000000000000086c	       386        1  __RU_lA____M______________________	referenced,uptodate,lru,active,mmap
0x0000000000005848	         5        0  ___U__A____Ma_b___________________	uptodate,active,mmap,anonymous,swapbacked
0x0000000000005868	       678        2  ___U_lA____Ma_b___________________	uptodate,lru,active,mmap,anonymous,swapbacked
0x000000000000586c	         1        0  __RU_lA____Ma_b___________________	referenced,uptodate,lru,active,mmap,anonymous,swapbacked
             total	      1071        4

=============================================
Color Distribution for All Pages:
=============================================
             color[0]	        30        0
             color[1]	        29        0
             color[2]	        40        0
             color[3]	        39        0
             color[4]	        30        0
             color[5]	        32        0
             color[6]	        40        0
             color[7]	        36        0
             color[8]	        32        0
             color[9]	        30        0
             color[10]	        33        0
             color[11]	        33        0
             color[12]	        37        0
             color[13]	        41        0
             color[14]	        35        0
             color[15]	        32        0
             color[16]	        35        0
             color[17]	        37        0
             color[18]	        33        0
             color[19]	        30        0
             color[20]	        36        0
             color[21]	        39        0
             color[22]	        33        0
             color[23]	        29        0
             color[24]	        31        0
             color[25]	        33        0
             color[26]	        19        0
             color[27]	        22        0
             color[28]	        40        0
             color[29]	        37        0
             color[30]	        35        0
             color[31]	        33        0
