assigned to cpu 0
memsize=2560 KB, type=read, cpuid=0
stop at 1000
total sum = 134227872645120
g_nread(bytes read) = 26217021440
elapsed = 1.18 sec ( 1182900 usec )
CPU0: B/W = 21136.62 MB/s | CPU0: average = 2.89 ns
total llcache-events (accesses) : 409664321
total llcache-events (misses)   : 3615482
llcache-miss-rate               : 0.88%
LLC B/W  = 21137.82 MB/s
DRAM B/W = 186.55 MB/s
pid : 9261
             flags	page-count       MB  symbolic-flags			long-symbolic-flags
0x0000000000000804	         1        0  __R________M______________________	referenced,mmap
0x000000000000086c	       386        1  __RU_lA____M______________________	referenced,uptodate,lru,active,mmap
0x0000000000005848	         5        0  ___U__A____Ma_b___________________	uptodate,active,mmap,anonymous,swapbacked
0x0000000000005868	       678        2  ___U_lA____Ma_b___________________	uptodate,lru,active,mmap,anonymous,swapbacked
0x000000000000586c	         1        0  __RU_lA____Ma_b___________________	referenced,uptodate,lru,active,mmap,anonymous,swapbacked
             total	      1071        4

=============================================
Color Distribution for All Pages:
=============================================
             color[0]	        35        0
             color[1]	        31        0
             color[2]	        41        0
             color[3]	        45        0
             color[4]	        31        0
             color[5]	        31        0
             color[6]	        30        0
             color[7]	        37        0
             color[8]	        32        0
             color[9]	        26        0
             color[10]	        35        0
             color[11]	        33        0
             color[12]	        29        0
             color[13]	        37        0
             color[14]	        34        0
             color[15]	        33        0
             color[16]	        38        0
             color[17]	        37        0
             color[18]	        39        0
             color[19]	        37        0
             color[20]	        33        0
             color[21]	        33        0
             color[22]	        27        0
             color[23]	        26        0
             color[24]	        27        0
             color[25]	        36        0
             color[26]	        20        0
             color[27]	        27        0
             color[28]	        44        0
             color[29]	        35        0
             color[30]	        36        0
             color[31]	        36        0
