assigned to cpu 0
memsize=3072 KB, type=read, cpuid=0
stop at 1000
total sum = 193288923119616
g_nread(bytes read) = 31460425728
elapsed = 1.64 sec ( 1637513 usec )
CPU0: B/W = 18322.30 MB/s | CPU0: average = 3.33 ns
total llcache-events (accesses) : 491594549
total llcache-events (misses)   : 36775346
llcache-miss-rate               : 7.48%
LLC B/W  = 18323.24 MB/s
DRAM B/W = 1370.73 MB/s
pid : 10492
             flags	page-count       MB  symbolic-flags			long-symbolic-flags
0x0000000000000804	         1        0  __R________M______________________	referenced,mmap
0x000000000000086c	       377        1  __RU_lA____M______________________	referenced,uptodate,lru,active,mmap
0x0000000000005848	         5        0  ___U__A____Ma_b___________________	uptodate,active,mmap,anonymous,swapbacked
0x0000000000005868	       806        3  ___U_lA____Ma_b___________________	uptodate,lru,active,mmap,anonymous,swapbacked
0x000000000000586c	         1        0  __RU_lA____Ma_b___________________	referenced,uptodate,lru,active,mmap,anonymous,swapbacked
             total	      1190        4

=============================================
Color Distribution for All Pages:
=============================================
             color[0]	        39        0
             color[1]	        37        0
             color[2]	        32        0
             color[3]	        52        0
             color[4]	        31        0
             color[5]	        31        0
             color[6]	        27        0
             color[7]	        29        0
             color[8]	        35        0
             color[9]	        32        0
             color[10]	        32        0
             color[11]	        34        0
             color[12]	        53        0
             color[13]	        40        0
             color[14]	        49        0
             color[15]	        37        0
             color[16]	        43        0
             color[17]	        43        0
             color[18]	        48        0
             color[19]	        46        0
             color[20]	        46        0
             color[21]	        38        0
             color[22]	        37        0
             color[23]	        36        0
             color[24]	        31        0
             color[25]	        36        0
             color[26]	        27        0
             color[27]	        27        0
             color[28]	        33        0
             color[29]	        33        0
             color[30]	        41        0
             color[31]	        35        0
