assigned to cpu 0
memsize=3072 KB, type=read, cpuid=0
stop at 1000
total sum = 193288923119616
g_nread(bytes read) = 31460425728
elapsed = 1.62 sec ( 1619248 usec )
CPU0: B/W = 18528.97 MB/s | CPU0: average = 3.29 ns
total llcache-events (accesses) : 491606382
total llcache-events (misses)   : 34127901
llcache-miss-rate               : 6.94%
LLC B/W  = 18530.37 MB/s
DRAM B/W = 1286.40 MB/s
pid : 10629
             flags	page-count       MB  symbolic-flags			long-symbolic-flags
0x0000000000000800	         1        0  ___________M______________________	mmap
0x000000000000086c	       383        1  __RU_lA____M______________________	referenced,uptodate,lru,active,mmap
0x0000000000005848	         5        0  ___U__A____Ma_b___________________	uptodate,active,mmap,anonymous,swapbacked
0x0000000000005868	       807        3  ___U_lA____Ma_b___________________	uptodate,lru,active,mmap,anonymous,swapbacked
0x000000000000586c	         1        0  __RU_lA____Ma_b___________________	referenced,uptodate,lru,active,mmap,anonymous,swapbacked
             total	      1197        4

=============================================
Color Distribution for All Pages:
=============================================
             color[0]	        36        0
             color[1]	        34        0
             color[2]	        34        0
             color[3]	        45        0
             color[4]	        32        0
             color[5]	        29        0
             color[6]	        30        0
             color[7]	        33        0
             color[8]	        32        0
             color[9]	        42        0
             color[10]	        41        0
             color[11]	        36        0
             color[12]	        50        0
             color[13]	        44        0
             color[14]	        43        0
             color[15]	        36        0
             color[16]	        38        0
             color[17]	        42        0
             color[18]	        54        0
             color[19]	        47        0
             color[20]	        41        0
             color[21]	        34        0
             color[22]	        37        0
             color[23]	        28        0
             color[24]	        34        0
             color[25]	        32        0
             color[26]	        25        0
             color[27]	        23        0
             color[28]	        44        0
             color[29]	        38        0
             color[30]	        45        0
             color[31]	        38        0
