assigned to cpu 0
memsize=3072 KB, type=read, cpuid=0
stop at 1000
total sum = 193288923119616
g_nread(bytes read) = 31460425728
elapsed = 1.41 sec ( 1409069 usec )
CPU0: B/W = 21292.78 MB/s | CPU0: average = 2.87 ns
total llcache-events (accesses) : 491596371
total llcache-events (misses)   : 3221582
llcache-miss-rate               : 0.66%
LLC B/W  = 21293.96 MB/s
DRAM B/W = 139.55 MB/s
pid : 10107
             flags	page-count       MB  symbolic-flags			long-symbolic-flags
0x0000000000000800	         1        0  ___________M______________________	mmap
0x000000000000086c	       386        1  __RU_lA____M______________________	referenced,uptodate,lru,active,mmap
0x0000000000005848	         5        0  ___U__A____Ma_b___________________	uptodate,active,mmap,anonymous,swapbacked
0x0000000000005868	       806        3  ___U_lA____Ma_b___________________	uptodate,lru,active,mmap,anonymous,swapbacked
0x000000000000586c	         1        0  __RU_lA____Ma_b___________________	referenced,uptodate,lru,active,mmap,anonymous,swapbacked
             total	      1199        4

=============================================
Color Distribution for All Pages:
=============================================
             color[0]	        41        0
             color[1]	        41        0
             color[2]	        48        0
             color[3]	        46        0
             color[4]	        33        0
             color[5]	        32        0
             color[6]	        35        0
             color[7]	        32        0
             color[8]	        28        0
             color[9]	        27        0
             color[10]	        32        0
             color[11]	        32        0
             color[12]	        42        0
             color[13]	        42        0
             color[14]	        45        0
             color[15]	        41        0
             color[16]	        44        0
             color[17]	        43        0
             color[18]	        43        0
             color[19]	        42        0
             color[20]	        37        0
             color[21]	        39        0
             color[22]	        35        0
             color[23]	        32        0
             color[24]	        28        0
             color[25]	        33        0
             color[26]	        30        0
             color[27]	        29        0
             color[28]	        44        0
             color[29]	        42        0
             color[30]	        41        0
             color[31]	        40        0
