assigned to cpu 0
memsize=3072 KB, type=read, cpuid=0
stop at 1000
total sum = 193288923119616
g_nread(bytes read) = 31460425728
elapsed = 1.66 sec ( 1660739 usec )
CPU0: B/W = 18066.05 MB/s | CPU0: average = 3.38 ns
total llcache-events (accesses) : 491598227
total llcache-events (misses)   : 39396852
llcache-miss-rate               : 8.01%
LLC B/W  = 18067.12 MB/s
DRAM B/W = 1447.91 MB/s
pid : 10028
             flags	page-count       MB  symbolic-flags			long-symbolic-flags
0x0000000000000800	         1        0  ___________M______________________	mmap
0x000000000000086c	       375        1  __RU_lA____M______________________	referenced,uptodate,lru,active,mmap
0x0000000000005848	         5        0  ___U__A____Ma_b___________________	uptodate,active,mmap,anonymous,swapbacked
0x0000000000005868	       805        3  ___U_lA____Ma_b___________________	uptodate,lru,active,mmap,anonymous,swapbacked
0x000000000000586c	         1        0  __RU_lA____Ma_b___________________	referenced,uptodate,lru,active,mmap,anonymous,swapbacked
             total	      1187        4

=============================================
Color Distribution for All Pages:
=============================================
             color[0]	        44        0
             color[1]	        44        0
             color[2]	        39        0
             color[3]	        36        0
             color[4]	        34        0
             color[5]	        24        0
             color[6]	        36        0
             color[7]	        39        0
             color[8]	        37        0
             color[9]	        41        0
             color[10]	        38        0
             color[11]	        33        0
             color[12]	        47        0
             color[13]	        48        0
             color[14]	        42        0
             color[15]	        39        0
             color[16]	        38        0
             color[17]	        39        0
             color[18]	        37        0
             color[19]	        37        0
             color[20]	        41        0
             color[21]	        42        0
             color[22]	        42        0
             color[23]	        37        0
             color[24]	        28        0
             color[25]	        26        0
             color[26]	        28        0
             color[27]	        34        0
             color[28]	        41        0
             color[29]	        35        0
             color[30]	        33        0
             color[31]	        28        0
