assigned to cpu 0
memsize=3072 KB, type=read, cpuid=0
stop at 1000
total sum = 193288923119616
g_nread(bytes read) = 31460425728
elapsed = 1.43 sec ( 1427585 usec )
CPU0: B/W = 21016.61 MB/s | CPU0: average = 2.90 ns
total llcache-events (accesses) : 491595020
total llcache-events (misses)   : 4860985
llcache-miss-rate               : 0.99%
LLC B/W  = 21017.72 MB/s
DRAM B/W = 207.83 MB/s
pid : 10015
             flags	page-count       MB  symbolic-flags			long-symbolic-flags
0x0000000000000804	         1        0  __R________M______________________	referenced,mmap
0x000000000000086c	       375        1  __RU_lA____M______________________	referenced,uptodate,lru,active,mmap
0x0000000000005848	         5        0  ___U__A____Ma_b___________________	uptodate,active,mmap,anonymous,swapbacked
0x0000000000005868	       805        3  ___U_lA____Ma_b___________________	uptodate,lru,active,mmap,anonymous,swapbacked
0x000000000000586c	         1        0  __RU_lA____Ma_b___________________	referenced,uptodate,lru,active,mmap,anonymous,swapbacked
             total	      1187        4

=============================================
Color Distribution for All Pages:
=============================================
             color[0]	        37        0
             color[1]	        43        0
             color[2]	        47        0
             color[3]	        46        0
             color[4]	        31        0
             color[5]	        31        0
             color[6]	        31        0
             color[7]	        33        0
             color[8]	        22        0
             color[9]	        24        0
             color[10]	        27        0
             color[11]	        27        0
             color[12]	        39        0
             color[13]	        45        0
             color[14]	        42        0
             color[15]	        40        0
             color[16]	        47        0
             color[17]	        49        0
             color[18]	        43        0
             color[19]	        43        0
             color[20]	        42        0
             color[21]	        46        0
             color[22]	        34        0
             color[23]	        33        0
             color[24]	        28        0
             color[25]	        34        0
             color[26]	        25        0
             color[27]	        27        0
             color[28]	        50        0
             color[29]	        45        0
             color[30]	        42        0
             color[31]	        34        0
