assigned to cpu 0
memsize=3072 KB, type=read, cpuid=0
stop at 1000
total sum = 193288923119616
g_nread(bytes read) = 31460425728
elapsed = 1.42 sec ( 1418718 usec )
CPU0: B/W = 21147.97 MB/s | CPU0: average = 2.89 ns
total llcache-events (accesses) : 491596909
total llcache-events (misses)   : 4288596
llcache-miss-rate               : 0.87%
LLC B/W  = 21149.16 MB/s
DRAM B/W = 184.50 MB/s
pid : 10122
             flags	page-count       MB  symbolic-flags			long-symbolic-flags
0x0000000000000800	         1        0  ___________M______________________	mmap
0x000000000000086c	       373        1  __RU_lA____M______________________	referenced,uptodate,lru,active,mmap
0x0000000000005848	         5        0  ___U__A____Ma_b___________________	uptodate,active,mmap,anonymous,swapbacked
0x0000000000005868	       806        3  ___U_lA____Ma_b___________________	uptodate,lru,active,mmap,anonymous,swapbacked
0x000000000000586c	         1        0  __RU_lA____Ma_b___________________	referenced,uptodate,lru,active,mmap,anonymous,swapbacked
             total	      1186        4

=============================================
Color Distribution for All Pages:
=============================================
             color[0]	        39        0
             color[1]	        39        0
             color[2]	        41        0
             color[3]	        40        0
             color[4]	        33        0
             color[5]	        31        0
             color[6]	        33        0
             color[7]	        36        0
             color[8]	        27        0
             color[9]	        28        0
             color[10]	        32        0
             color[11]	        29        0
             color[12]	        42        0
             color[13]	        42        0
             color[14]	        41        0
             color[15]	        38        0
             color[16]	        43        0
             color[17]	        45        0
             color[18]	        42        0
             color[19]	        44        0
             color[20]	        42        0
             color[21]	        44        0
             color[22]	        33        0
             color[23]	        31        0
             color[24]	        31        0
             color[25]	        31        0
             color[26]	        30        0
             color[27]	        32        0
             color[28]	        45        0
             color[29]	        43        0
             color[30]	        41        0
             color[31]	        38        0
