assigned to cpu 0
memsize=3072 KB, type=read, cpuid=0
stop at 1000
total sum = 193288923119616
g_nread(bytes read) = 31460425728
elapsed = 1.57 sec ( 1567984 usec )
CPU0: B/W = 19134.76 MB/s | CPU0: average = 3.19 ns
total llcache-events (accesses) : 491600308
total llcache-events (misses)   : 26377039
llcache-miss-rate               : 5.37%
LLC B/W  = 19135.97 MB/s
DRAM B/W = 1026.75 MB/s
pid : 9693
             flags	page-count       MB  symbolic-flags			long-symbolic-flags
0x0000000000000804	         1        0  __R________M______________________	referenced,mmap
0x000000000000086c	       376        1  __RU_lA____M______________________	referenced,uptodate,lru,active,mmap
0x0000000000005848	         5        0  ___U__A____Ma_b___________________	uptodate,active,mmap,anonymous,swapbacked
0x0000000000005868	       806        3  ___U_lA____Ma_b___________________	uptodate,lru,active,mmap,anonymous,swapbacked
0x000000000000586c	         1        0  __RU_lA____Ma_b___________________	referenced,uptodate,lru,active,mmap,anonymous,swapbacked
             total	      1189        4

=============================================
Color Distribution for All Pages:
=============================================
             color[0]	        39        0
             color[1]	        39        0
             color[2]	        37        0
             color[3]	        40        0
             color[4]	        34        0
             color[5]	        33        0
             color[6]	        31        0
             color[7]	        32        0
             color[8]	        27        0
             color[9]	        28        0
             color[10]	        30        0
             color[11]	        32        0
             color[12]	        44        0
             color[13]	        46        0
             color[14]	        40        0
             color[15]	        40        0
             color[16]	        42        0
             color[17]	        46        0
             color[18]	        38        0
             color[19]	        43        0
             color[20]	        42        0
             color[21]	        43        0
             color[22]	        36        0
             color[23]	        33        0
             color[24]	        34        0
             color[25]	        35        0
             color[26]	        30        0
             color[27]	        31        0
             color[28]	        43        0
             color[29]	        42        0
             color[30]	        43        0
             color[31]	        36        0
