assigned to cpu 0
memsize=3072 KB, type=read, cpuid=0
stop at 1000
total sum = 193288923119616
g_nread(bytes read) = 31460425728
elapsed = 1.44 sec ( 1438550 usec )
CPU0: B/W = 20856.42 MB/s | CPU0: average = 2.93 ns
total llcache-events (accesses) : 491595720
total llcache-events (misses)   : 6264851
llcache-miss-rate               : 1.27%
LLC B/W  = 20857.54 MB/s
DRAM B/W = 265.81 MB/s
pid : 10160
             flags	page-count       MB  symbolic-flags			long-symbolic-flags
0x0000000000000800	         1        0  ___________M______________________	mmap
0x000000000000086c	       397        1  __RU_lA____M______________________	referenced,uptodate,lru,active,mmap
0x0000000000005848	         5        0  ___U__A____Ma_b___________________	uptodate,active,mmap,anonymous,swapbacked
0x0000000000005868	       805        3  ___U_lA____Ma_b___________________	uptodate,lru,active,mmap,anonymous,swapbacked
0x000000000000586c	         1        0  __RU_lA____Ma_b___________________	referenced,uptodate,lru,active,mmap,anonymous,swapbacked
             total	      1209        4

=============================================
Color Distribution for All Pages:
=============================================
             color[0]	        39        0
             color[1]	        38        0
             color[2]	        44        0
             color[3]	        43        0
             color[4]	        38        0
             color[5]	        36        0
             color[6]	        34        0
             color[7]	        36        0
             color[8]	        35        0
             color[9]	        32        0
             color[10]	        36        0
             color[11]	        34        0
             color[12]	        44        0
             color[13]	        41        0
             color[14]	        42        0
             color[15]	        38        0
             color[16]	        43        0
             color[17]	        41        0
             color[18]	        44        0
             color[19]	        41        0
             color[20]	        35        0
             color[21]	        37        0
             color[22]	        31        0
             color[23]	        29        0
             color[24]	        29        0
             color[25]	        30        0
             color[26]	        31        0
             color[27]	        33        0
             color[28]	        45        0
             color[29]	        45        0
             color[30]	        43        0
             color[31]	        42        0
