assigned to cpu 0
memsize=3072 KB, type=read, cpuid=0
stop at 1000
total sum = 193288923119616
g_nread(bytes read) = 31460425728
elapsed = 1.42 sec ( 1421129 usec )
CPU0: B/W = 21112.09 MB/s | CPU0: average = 2.89 ns
total llcache-events (accesses) : 491594842
total llcache-events (misses)   : 4610587
llcache-miss-rate               : 0.94%
LLC B/W  = 21113.19 MB/s
DRAM B/W = 198.02 MB/s
pid : 10170
             flags	page-count       MB  symbolic-flags			long-symbolic-flags
0x0000000000000804	         1        0  __R________M______________________	referenced,mmap
0x000000000000086c	       385        1  __RU_lA____M______________________	referenced,uptodate,lru,active,mmap
0x0000000000005848	         5        0  ___U__A____Ma_b___________________	uptodate,active,mmap,anonymous,swapbacked
0x0000000000005868	       806        3  ___U_lA____Ma_b___________________	uptodate,lru,active,mmap,anonymous,swapbacked
0x000000000000586c	         1        0  __RU_lA____Ma_b___________________	referenced,uptodate,lru,active,mmap,anonymous,swapbacked
             total	      1198        4

=============================================
Color Distribution for All Pages:
=============================================
             color[0]	        45        0
             color[1]	        43        0
             color[2]	        42        0
             color[3]	        42        0
             color[4]	        36        0
             color[5]	        38        0
             color[6]	        37        0
             color[7]	        39        0
             color[8]	        33        0
             color[9]	        30        0
             color[10]	        33        0
             color[11]	        34        0
             color[12]	        42        0
             color[13]	        43        0
             color[14]	        40        0
             color[15]	        35        0
             color[16]	        47        0
             color[17]	        46        0
             color[18]	        42        0
             color[19]	        44        0
             color[20]	        36        0
             color[21]	        37        0
             color[22]	        28        0
             color[23]	        25        0
             color[24]	        29        0
             color[25]	        31        0
             color[26]	        31        0
             color[27]	        33        0
             color[28]	        43        0
             color[29]	        43        0
             color[30]	        35        0
             color[31]	        36        0
