assigned to cpu 0
memsize=3072 KB, type=read, cpuid=0
stop at 1000
total sum = 193288923119616
g_nread(bytes read) = 31460425728
elapsed = 1.42 sec ( 1419744 usec )
CPU0: B/W = 21132.68 MB/s | CPU0: average = 2.89 ns
total llcache-events (accesses) : 491594379
total llcache-events (misses)   : 4211537
llcache-miss-rate               : 0.86%
LLC B/W  = 21133.77 MB/s
DRAM B/W = 181.06 MB/s
pid : 10159
             flags	page-count       MB  symbolic-flags			long-symbolic-flags
0x0000000000000804	         1        0  __R________M______________________	referenced,mmap
0x000000000000086c	       374        1  __RU_lA____M______________________	referenced,uptodate,lru,active,mmap
0x0000000000005848	         5        0  ___U__A____Ma_b___________________	uptodate,active,mmap,anonymous,swapbacked
0x0000000000005868	       805        3  ___U_lA____Ma_b___________________	uptodate,lru,active,mmap,anonymous,swapbacked
0x000000000000586c	         1        0  __RU_lA____Ma_b___________________	referenced,uptodate,lru,active,mmap,anonymous,swapbacked
             total	      1186        4

=============================================
Color Distribution for All Pages:
=============================================
             color[0]	        39        0
             color[1]	        38        0
             color[2]	        41        0
             color[3]	        42        0
             color[4]	        35        0
             color[5]	        32        0
             color[6]	        41        0
             color[7]	        42        0
             color[8]	        29        0
             color[9]	        28        0
             color[10]	        32        0
             color[11]	        31        0
             color[12]	        38        0
             color[13]	        44        0
             color[14]	        37        0
             color[15]	        34        0
             color[16]	        46        0
             color[17]	        46        0
             color[18]	        45        0
             color[19]	        44        0
             color[20]	        38        0
             color[21]	        37        0
             color[22]	        28        0
             color[23]	        27        0
             color[24]	        32        0
             color[25]	        32        0
             color[26]	        33        0
             color[27]	        34        0
             color[28]	        43        0
             color[29]	        44        0
             color[30]	        39        0
             color[31]	        35        0
